%YAML 1.1
%TAG !u! tag:unity3d.com,2011:
--- !u!29 &1
OcclusionCullingSettings:
  m_ObjectHideFlags: 0
  serializedVersion: 2
  m_OcclusionBakeSettings:
    smallestOccluder: 5
    smallestHole: 0.25
    backfaceThreshold: 100
  m_SceneGUID: 00000000000000000000000000000000
  m_OcclusionCullingData: {fileID: 0}
--- !u!104 &2
RenderSettings:
  m_ObjectHideFlags: 0
  serializedVersion: 9
  m_Fog: 0
  m_FogColor: {r: 0.5, g: 0.5, b: 0.5, a: 1}
  m_FogMode: 3
  m_FogDensity: 1
  m_LinearFogStart: 0
  m_LinearFogEnd: 300
  m_AmbientSkyColor: {r: 0.212, g: 0.227, b: 0.259, a: 1}
  m_AmbientEquatorColor: {r: 0.114, g: 0.125, b: 0.133, a: 1}
  m_AmbientGroundColor: {r: 0.047, g: 0.043, b: 0.035, a: 1}
  m_AmbientIntensity: 1
  m_AmbientMode: 0
  m_SubtractiveShadowColor: {r: 0.42, g: 0.478, b: 0.627, a: 1}
  m_SkyboxMaterial: {fileID: 10304, guid: 0000000000000000f000000000000000, type: 0}
  m_HaloStrength: 0.5
  m_FlareStrength: 1
  m_FlareFadeSpeed: 3
  m_HaloTexture: {fileID: 0}
  m_SpotCookie: {fileID: 10001, guid: 0000000000000000e000000000000000, type: 0}
  m_DefaultReflectionMode: 0
  m_DefaultReflectionResolution: 256
  m_ReflectionBounces: 1
  m_ReflectionIntensity: 1
  m_CustomReflection: {fileID: 0}
  m_Sun: {fileID: 0}
  m_IndirectSpecularColor: {r: 0.44845188, g: 0.49848896, b: 0.57563585, a: 1}
  m_UseRadianceAmbientProbe: 0
--- !u!157 &4
LightmapSettings:
  m_ObjectHideFlags: 0
  serializedVersion: 12
  m_GIWorkflowMode: 0
  m_GISettings:
    serializedVersion: 2
    m_BounceScale: 1
    m_IndirectOutputScale: 1
    m_AlbedoBoost: 1
    m_EnvironmentLightingMode: 0
    m_EnableBakedLightmaps: 1
    m_EnableRealtimeLightmaps: 1
  m_LightmapEditorSettings:
    serializedVersion: 12
    m_Resolution: 2
    m_BakeResolution: 40
    m_AtlasSize: 1024
    m_AO: 0
    m_AOMaxDistance: 1
    m_CompAOExponent: 0
    m_CompAOExponentDirect: 0
    m_ExtractAmbientOcclusion: 0
    m_Padding: 2
    m_LightmapParameters: {fileID: 0}
    m_LightmapsBakeMode: 1
    m_TextureCompression: 1
    m_FinalGather: 0
    m_FinalGatherFiltering: 1
    m_FinalGatherRayCount: 1024
    m_ReflectionCompression: 2
    m_MixedBakeMode: 1
    m_BakeBackend: 0
    m_PVRSampling: 1
    m_PVRDirectSampleCount: 32
    m_PVRSampleCount: 500
    m_PVRBounces: 2
    m_PVREnvironmentSampleCount: 500
    m_PVREnvironmentReferencePointCount: 2048
    m_PVRFilteringMode: 0
    m_PVRDenoiserTypeDirect: 0
    m_PVRDenoiserTypeIndirect: 0
    m_PVRDenoiserTypeAO: 0
    m_PVRFilterTypeDirect: 0
    m_PVRFilterTypeIndirect: 0
    m_PVRFilterTypeAO: 0
    m_PVREnvironmentMIS: 0
    m_PVRCulling: 1
    m_PVRFilteringGaussRadiusDirect: 1
    m_PVRFilteringGaussRadiusIndirect: 5
    m_PVRFilteringGaussRadiusAO: 2
    m_PVRFilteringAtrousPositionSigmaDirect: 0.5
    m_PVRFilteringAtrousPositionSigmaIndirect: 2
    m_PVRFilteringAtrousPositionSigmaAO: 1
    m_ExportTrainingData: 0
    m_TrainingDataDestination: TrainingData
    m_LightProbeSampleCountMultiplier: 4
  m_LightingDataAsset: {fileID: 0}
  m_LightingSettings: {fileID: 4890085278179872738, guid: 3309d23391d2f4b989be1535fe18e3fe, type: 2}
--- !u!196 &5
NavMeshSettings:
  serializedVersion: 2
  m_ObjectHideFlags: 0
  m_BuildSettings:
    serializedVersion: 2
    agentTypeID: 0
    agentRadius: 0.5
    agentHeight: 2
    agentSlope: 45
    agentClimb: 0.4
    ledgeDropHeight: 0
    maxJumpAcrossDistance: 0
    minRegionArea: 2
    manualCellSize: 0
    cellSize: 0.16666667
    manualTileSize: 0
    tileSize: 256
    accuratePlacement: 0
    maxJobWorkers: 0
    preserveTilesOutsideBounds: 0
    debug:
      m_Flags: 0
  m_NavMeshData: {fileID: 0}
--- !u!1001 &30042878
PrefabInstance:
  m_ObjectHideFlags: 0
  serializedVersion: 2
  m_Modification:
    m_TransformParent: {fileID: 0}
    m_Modifications:
    - target: {fileID: 415492, guid: f974ad7c294dd994db976cbd37ed92e1, type: 3}
      propertyPath: m_LocalPosition.x
      value: .221000001
      objectReference: {fileID: 0}
    - target: {fileID: 415492, guid: f974ad7c294dd994db976cbd37ed92e1, type: 3}
      propertyPath: m_LocalPosition.y
      value: 0
      objectReference: {fileID: 0}
    - target: {fileID: 415492, guid: f974ad7c294dd994db976cbd37ed92e1, type: 3}
      propertyPath: m_LocalPosition.z
      value: .449000001
      objectReference: {fileID: 0}
    - target: {fileID: 415492, guid: f974ad7c294dd994db976cbd37ed92e1, type: 3}
      propertyPath: m_LocalRotation.x
      value: 1.15202326e-07
      objectReference: {fileID: 0}
    - target: {fileID: 415492, guid: f974ad7c294dd994db976cbd37ed92e1, type: 3}
      propertyPath: m_LocalRotation.y
      value: .707106829
      objectReference: {fileID: 0}
    - target: {fileID: 415492, guid: f974ad7c294dd994db976cbd37ed92e1, type: 3}
      propertyPath: m_LocalRotation.z
      value: .707106829
      objectReference: {fileID: 0}
    - target: {fileID: 415492, guid: f974ad7c294dd994db976cbd37ed92e1, type: 3}
      propertyPath: m_LocalRotation.w
      value: -1.15202326e-07
      objectReference: {fileID: 0}
    - target: {fileID: 415492, guid: f974ad7c294dd994db976cbd37ed92e1, type: 3}
      propertyPath: m_RootOrder
      value: 22
      objectReference: {fileID: 0}
    m_RemovedComponents: []
  m_SourcePrefab: {fileID: 100100000, guid: f974ad7c294dd994db976cbd37ed92e1, type: 3}
--- !u!1 &53316742
GameObject:
  m_ObjectHideFlags: 0
  m_CorrespondingSourceObject: {fileID: 0}
  m_PrefabInstance: {fileID: 0}
  m_PrefabAsset: {fileID: 0}
  serializedVersion: 6
  m_Component:
  - component: {fileID: 53316744}
  - component: {fileID: 53316743}
  m_Layer: 0
  m_Name: Directional light
  m_TagString: Untagged
  m_Icon: {fileID: 0}
  m_NavMeshLayer: 0
  m_StaticEditorFlags: 0
  m_IsActive: 1
--- !u!108 &53316743
Light:
  m_ObjectHideFlags: 0
  m_CorrespondingSourceObject: {fileID: 0}
  m_PrefabInstance: {fileID: 0}
  m_PrefabAsset: {fileID: 0}
  m_GameObject: {fileID: 53316742}
  m_Enabled: 1
  serializedVersion: 10
  m_Type: 1
  m_Shape: 0
  m_Color: {r: 1, g: 1, b: 1, a: 1}
  m_Intensity: 1
  m_Range: 10
  m_SpotAngle: 30
  m_InnerSpotAngle: 21.802082
  m_CookieSize: 10
  m_Shadows:
    m_Type: 0
    m_Resolution: 3
    m_CustomResolution: -1
    m_Strength: 0.46
    m_Bias: 0.1
    m_NormalBias: 0
    m_NearPlane: 0.2
    m_CullingMatrixOverride:
      e00: 1
      e01: 0
      e02: 0
      e03: 0
      e10: 0
      e11: 1
      e12: 0
      e13: 0
      e20: 0
      e21: 0
      e22: 1
      e23: 0
      e30: 0
      e31: 0
      e32: 0
      e33: 1
    m_UseCullingMatrixOverride: 0
  m_Cookie: {fileID: 0}
  m_DrawHalo: 0
  m_Flare: {fileID: 0}
  m_RenderMode: 0
  m_CullingMask:
    serializedVersion: 2
    m_Bits: 4294967295
  m_RenderingLayerMask: 1
  m_Lightmapping: 4
  m_LightShadowCasterMode: 0
  m_AreaSize: {x: 1, y: 1}
  m_BounceIntensity: 1
  m_ColorTemperature: 6570
  m_UseColorTemperature: 0
  m_BoundingSphereOverride: {x: 0, y: 0, z: 0, w: 0}
  m_UseBoundingSphereOverride: 0
  m_ShadowRadius: 0
  m_ShadowAngle: 0
--- !u!4 &53316744
Transform:
  m_ObjectHideFlags: 0
  m_CorrespondingSourceObject: {fileID: 0}
  m_PrefabInstance: {fileID: 0}
  m_PrefabAsset: {fileID: 0}
  m_GameObject: {fileID: 53316742}
  m_LocalRotation: {x: 0.4131554, y: -0.8287669, z: 0.33869845, w: 0.16652755}
  m_LocalPosition: {x: 0.024, y: 1.58, z: 0}
  m_LocalScale: {x: 0.69600415, y: 0.69600415, z: 0.69600415}
  m_Children: []
  m_Father: {fileID: 0}
  m_RootOrder: 1
  m_LocalEulerAnglesHint: {x: 0, y: 0, z: 0}
--- !u!1001 &105283068
PrefabInstance:
  m_ObjectHideFlags: 0
  serializedVersion: 2
  m_Modification:
    m_TransformParent: {fileID: 0}
    m_Modifications:
    - target: {fileID: 427616, guid: a672d883412876f44995d03608c806db, type: 3}
      propertyPath: m_LocalPosition.x
      value: .481000006
      objectReference: {fileID: 0}
    - target: {fileID: 427616, guid: a672d883412876f44995d03608c806db, type: 3}
      propertyPath: m_LocalPosition.y
      value: 0
      objectReference: {fileID: 0}
    - target: {fileID: 427616, guid: a672d883412876f44995d03608c806db, type: 3}
      propertyPath: m_LocalPosition.z
      value: -.111000001
      objectReference: {fileID: 0}
    - target: {fileID: 427616, guid: a672d883412876f44995d03608c806db, type: 3}
      propertyPath: m_LocalRotation.x
      value: 1.15202326e-07
      objectReference: {fileID: 0}
    - target: {fileID: 427616, guid: a672d883412876f44995d03608c806db, type: 3}
      propertyPath: m_LocalRotation.y
      value: .707106829
      objectReference: {fileID: 0}
    - target: {fileID: 427616, guid: a672d883412876f44995d03608c806db, type: 3}
      propertyPath: m_LocalRotation.z
      value: .707106829
      objectReference: {fileID: 0}
    - target: {fileID: 427616, guid: a672d883412876f44995d03608c806db, type: 3}
      propertyPath: m_LocalRotation.w
      value: -1.15202326e-07
      objectReference: {fileID: 0}
    - target: {fileID: 427616, guid: a672d883412876f44995d03608c806db, type: 3}
      propertyPath: m_RootOrder
      value: 20
      objectReference: {fileID: 0}
    m_RemovedComponents: []
  m_SourcePrefab: {fileID: 100100000, guid: a672d883412876f44995d03608c806db, type: 3}
--- !u!1001 &135296382
PrefabInstance:
  m_ObjectHideFlags: 0
  serializedVersion: 2
  m_Modification:
    m_TransformParent: {fileID: 0}
    m_Modifications:
    - target: {fileID: 453360, guid: f860e21d40912044096cc8d6b2501579, type: 3}
      propertyPath: m_LocalPosition.x
      value: .750999987
      objectReference: {fileID: 0}
    - target: {fileID: 453360, guid: f860e21d40912044096cc8d6b2501579, type: 3}
      propertyPath: m_LocalPosition.y
      value: 0
      objectReference: {fileID: 0}
    - target: {fileID: 453360, guid: f860e21d40912044096cc8d6b2501579, type: 3}
      propertyPath: m_LocalPosition.z
      value: .449000001
      objectReference: {fileID: 0}
    - target: {fileID: 453360, guid: f860e21d40912044096cc8d6b2501579, type: 3}
      propertyPath: m_LocalRotation.x
      value: 1.15202326e-07
      objectReference: {fileID: 0}
    - target: {fileID: 453360, guid: f860e21d40912044096cc8d6b2501579, type: 3}
      propertyPath: m_LocalRotation.y
      value: .707106829
      objectReference: {fileID: 0}
    - target: {fileID: 453360, guid: f860e21d40912044096cc8d6b2501579, type: 3}
      propertyPath: m_LocalRotation.z
      value: .707106829
      objectReference: {fileID: 0}
    - target: {fileID: 453360, guid: f860e21d40912044096cc8d6b2501579, type: 3}
      propertyPath: m_LocalRotation.w
      value: -1.15202326e-07
      objectReference: {fileID: 0}
    - target: {fileID: 453360, guid: f860e21d40912044096cc8d6b2501579, type: 3}
      propertyPath: m_RootOrder
      value: 12
      objectReference: {fileID: 0}
    m_RemovedComponents: []
  m_SourcePrefab: {fileID: 100100000, guid: f860e21d40912044096cc8d6b2501579, type: 3}
--- !u!1001 &185393845
PrefabInstance:
  m_ObjectHideFlags: 0
  serializedVersion: 2
  m_Modification:
    m_TransformParent: {fileID: 0}
    m_Modifications:
    - target: {fileID: 418556, guid: 95a944a4cb98c39469dfeb7ac33fffe1, type: 3}
      propertyPath: m_LocalPosition.x
      value: -.765999973
      objectReference: {fileID: 0}
    - target: {fileID: 418556, guid: 95a944a4cb98c39469dfeb7ac33fffe1, type: 3}
      propertyPath: m_LocalPosition.y
      value: 0
      objectReference: {fileID: 0}
    - target: {fileID: 418556, guid: 95a944a4cb98c39469dfeb7ac33fffe1, type: 3}
      propertyPath: m_LocalPosition.z
      value: -.0610000007
      objectReference: {fileID: 0}
    - target: {fileID: 418556, guid: 95a944a4cb98c39469dfeb7ac33fffe1, type: 3}
      propertyPath: m_LocalRotation.x
      value: -.863569915
      objectReference: {fileID: 0}
    - target: {fileID: 418556, guid: 95a944a4cb98c39469dfeb7ac33fffe1, type: 3}
      propertyPath: m_LocalRotation.y
      value: .0142383333
      objectReference: {fileID: 0}
    - target: {fileID: 418556, guid: 95a944a4cb98c39469dfeb7ac33fffe1, type: 3}
      propertyPath: m_LocalRotation.z
      value: -.489387393
      objectReference: {fileID: 0}
    - target: {fileID: 418556, guid: 95a944a4cb98c39469dfeb7ac33fffe1, type: 3}
      propertyPath: m_LocalRotation.w
      value: -.120600067
      objectReference: {fileID: 0}
    - target: {fileID: 418556, guid: 95a944a4cb98c39469dfeb7ac33fffe1, type: 3}
      propertyPath: m_RootOrder
      value: 41
      objectReference: {fileID: 0}
    m_RemovedComponents: []
  m_SourcePrefab: {fileID: 100100000, guid: 95a944a4cb98c39469dfeb7ac33fffe1, type: 3}
--- !u!1001 &214044032
PrefabInstance:
  m_ObjectHideFlags: 0
  serializedVersion: 2
  m_Modification:
    m_TransformParent: {fileID: 0}
    m_Modifications:
    - target: {fileID: 405700, guid: 66009ea93fa036c4e830f9f2a4c06a18, type: 3}
      propertyPath: m_LocalPosition.x
      value: 1.14900005
      objectReference: {fileID: 0}
    - target: {fileID: 405700, guid: 66009ea93fa036c4e830f9f2a4c06a18, type: 3}
      propertyPath: m_LocalPosition.y
      value: 0
      objectReference: {fileID: 0}
    - target: {fileID: 405700, guid: 66009ea93fa036c4e830f9f2a4c06a18, type: 3}
      propertyPath: m_LocalPosition.z
      value: -.0810000002
      objectReference: {fileID: 0}
    - target: {fileID: 405700, guid: 66009ea93fa036c4e830f9f2a4c06a18, type: 3}
      propertyPath: m_LocalRotation.x
      value: .107415438
      objectReference: {fileID: 0}
    - target: {fileID: 405700, guid: 66009ea93fa036c4e830f9f2a4c06a18, type: 3}
      propertyPath: m_LocalRotation.y
      value: .0891208872
      objectReference: {fileID: 0}
    - target: {fileID: 405700, guid: 66009ea93fa036c4e830f9f2a4c06a18, type: 3}
      propertyPath: m_LocalRotation.z
      value: .111321598
      objectReference: {fileID: 0}
    - target: {fileID: 405700, guid: 66009ea93fa036c4e830f9f2a4c06a18, type: 3}
      propertyPath: m_LocalRotation.w
      value: .983934402
      objectReference: {fileID: 0}
    - target: {fileID: 405700, guid: 66009ea93fa036c4e830f9f2a4c06a18, type: 3}
      propertyPath: m_RootOrder
      value: 30
      objectReference: {fileID: 0}
    m_RemovedComponents: []
  m_SourcePrefab: {fileID: 100100000, guid: 66009ea93fa036c4e830f9f2a4c06a18, type: 3}
--- !u!1001 &276977064
PrefabInstance:
  m_ObjectHideFlags: 0
  serializedVersion: 2
  m_Modification:
    m_TransformParent: {fileID: 0}
    m_Modifications:
    - target: {fileID: 431264, guid: 14a1089dfc8b2f949937da50bf38bc90, type: 3}
      propertyPath: m_LocalPosition.x
      value: -1.18599999
      objectReference: {fileID: 0}
    - target: {fileID: 431264, guid: 14a1089dfc8b2f949937da50bf38bc90, type: 3}
      propertyPath: m_LocalPosition.y
      value: 0
      objectReference: {fileID: 0}
    - target: {fileID: 431264, guid: 14a1089dfc8b2f949937da50bf38bc90, type: 3}
      propertyPath: m_LocalPosition.z
      value: -.0909999982
      objectReference: {fileID: 0}
    - target: {fileID: 431264, guid: 14a1089dfc8b2f949937da50bf38bc90, type: 3}
      propertyPath: m_LocalRotation.x
      value: 1.15202326e-07
      objectReference: {fileID: 0}
    - target: {fileID: 431264, guid: 14a1089dfc8b2f949937da50bf38bc90, type: 3}
      propertyPath: m_LocalRotation.y
      value: .707106829
      objectReference: {fileID: 0}
    - target: {fileID: 431264, guid: 14a1089dfc8b2f949937da50bf38bc90, type: 3}
      propertyPath: m_LocalRotation.z
      value: .707106829
      objectReference: {fileID: 0}
    - target: {fileID: 431264, guid: 14a1089dfc8b2f949937da50bf38bc90, type: 3}
      propertyPath: m_LocalRotation.w
      value: -1.15202326e-07
      objectReference: {fileID: 0}
    - target: {fileID: 431264, guid: 14a1089dfc8b2f949937da50bf38bc90, type: 3}
      propertyPath: m_RootOrder
      value: 26
      objectReference: {fileID: 0}
    m_RemovedComponents: []
  m_SourcePrefab: {fileID: 100100000, guid: 14a1089dfc8b2f949937da50bf38bc90, type: 3}
--- !u!1001 &326517576
PrefabInstance:
  m_ObjectHideFlags: 0
  serializedVersion: 2
  m_Modification:
    m_TransformParent: {fileID: 0}
    m_Modifications:
    - target: {fileID: 490798, guid: a5132481e1eaddb4e93b7cd8def7b311, type: 3}
      propertyPath: m_LocalPosition.x
      value: -.199000001
      objectReference: {fileID: 0}
    - target: {fileID: 490798, guid: a5132481e1eaddb4e93b7cd8def7b311, type: 3}
      propertyPath: m_LocalPosition.y
      value: 0
      objectReference: {fileID: 0}
    - target: {fileID: 490798, guid: a5132481e1eaddb4e93b7cd8def7b311, type: 3}
      propertyPath: m_LocalPosition.z
      value: -.699999988
      objectReference: {fileID: 0}
    - target: {fileID: 490798, guid: a5132481e1eaddb4e93b7cd8def7b311, type: 3}
      propertyPath: m_LocalRotation.x
      value: 1.15202326e-07
      objectReference: {fileID: 0}
    - target: {fileID: 490798, guid: a5132481e1eaddb4e93b7cd8def7b311, type: 3}
      propertyPath: m_LocalRotation.y
      value: .707106829
      objectReference: {fileID: 0}
    - target: {fileID: 490798, guid: a5132481e1eaddb4e93b7cd8def7b311, type: 3}
      propertyPath: m_LocalRotation.z
      value: .707106829
      objectReference: {fileID: 0}
    - target: {fileID: 490798, guid: a5132481e1eaddb4e93b7cd8def7b311, type: 3}
      propertyPath: m_LocalRotation.w
      value: -1.15202326e-07
      objectReference: {fileID: 0}
    - target: {fileID: 490798, guid: a5132481e1eaddb4e93b7cd8def7b311, type: 3}
      propertyPath: m_RootOrder
      value: 18
      objectReference: {fileID: 0}
    m_RemovedComponents: []
  m_SourcePrefab: {fileID: 100100000, guid: a5132481e1eaddb4e93b7cd8def7b311, type: 3}
--- !u!1001 &427303518
PrefabInstance:
  m_ObjectHideFlags: 0
  serializedVersion: 2
  m_Modification:
    m_TransformParent: {fileID: 0}
    m_Modifications:
    - target: {fileID: 414824, guid: 289062a2b299f714980c64eaaa5623c5, type: 3}
      propertyPath: m_LocalPosition.x
      value: -.666000009
      objectReference: {fileID: 0}
    - target: {fileID: 414824, guid: 289062a2b299f714980c64eaaa5623c5, type: 3}
      propertyPath: m_LocalPosition.y
      value: 0
      objectReference: {fileID: 0}
    - target: {fileID: 414824, guid: 289062a2b299f714980c64eaaa5623c5, type: 3}
      propertyPath: m_LocalPosition.z
      value: -.0810000002
      objectReference: {fileID: 0}
    - target: {fileID: 414824, guid: 289062a2b299f714980c64eaaa5623c5, type: 3}
      propertyPath: m_LocalRotation.x
      value: 1.15202326e-07
      objectReference: {fileID: 0}
    - target: {fileID: 414824, guid: 289062a2b299f714980c64eaaa5623c5, type: 3}
      propertyPath: m_LocalRotation.y
      value: .707106829
      objectReference: {fileID: 0}
    - target: {fileID: 414824, guid: 289062a2b299f714980c64eaaa5623c5, type: 3}
      propertyPath: m_LocalRotation.z
      value: .707106829
      objectReference: {fileID: 0}
    - target: {fileID: 414824, guid: 289062a2b299f714980c64eaaa5623c5, type: 3}
      propertyPath: m_LocalRotation.w
      value: -1.15202326e-07
      objectReference: {fileID: 0}
    - target: {fileID: 414824, guid: 289062a2b299f714980c64eaaa5623c5, type: 3}
      propertyPath: m_RootOrder
      value: 16
      objectReference: {fileID: 0}
    m_RemovedComponents: []
  m_SourcePrefab: {fileID: 100100000, guid: 289062a2b299f714980c64eaaa5623c5, type: 3}
--- !u!1001 &492513190
PrefabInstance:
  m_ObjectHideFlags: 0
  serializedVersion: 2
  m_Modification:
    m_TransformParent: {fileID: 0}
    m_Modifications:
    - target: {fileID: 464630, guid: f05ca6457085e0f428373f98413918ea, type: 3}
      propertyPath: m_LocalPosition.x
      value: -.458999991
      objectReference: {fileID: 0}
    - target: {fileID: 464630, guid: f05ca6457085e0f428373f98413918ea, type: 3}
      propertyPath: m_LocalPosition.y
      value: 0
      objectReference: {fileID: 0}
    - target: {fileID: 464630, guid: f05ca6457085e0f428373f98413918ea, type: 3}
      propertyPath: m_LocalPosition.z
      value: -.709999979
      objectReference: {fileID: 0}
    - target: {fileID: 464630, guid: f05ca6457085e0f428373f98413918ea, type: 3}
      propertyPath: m_LocalRotation.x
      value: 1.15202326e-07
      objectReference: {fileID: 0}
    - target: {fileID: 464630, guid: f05ca6457085e0f428373f98413918ea, type: 3}
      propertyPath: m_LocalRotation.y
      value: .707106829
      objectReference: {fileID: 0}
    - target: {fileID: 464630, guid: f05ca6457085e0f428373f98413918ea, type: 3}
      propertyPath: m_LocalRotation.z
      value: .707106829
      objectReference: {fileID: 0}
    - target: {fileID: 464630, guid: f05ca6457085e0f428373f98413918ea, type: 3}
      propertyPath: m_LocalRotation.w
      value: -1.15202326e-07
      objectReference: {fileID: 0}
    - target: {fileID: 464630, guid: f05ca6457085e0f428373f98413918ea, type: 3}
      propertyPath: m_RootOrder
      value: 23
      objectReference: {fileID: 0}
    m_RemovedComponents: []
  m_SourcePrefab: {fileID: 100100000, guid: f05ca6457085e0f428373f98413918ea, type: 3}
--- !u!1001 &537330101
PrefabInstance:
  m_ObjectHideFlags: 0
  serializedVersion: 2
  m_Modification:
    m_TransformParent: {fileID: 0}
    m_Modifications:
    - target: {fileID: 469386, guid: afbde1d23e194df4ebd0a82acfcca0dc, type: 3}
      propertyPath: m_LocalPosition.x
      value: -1.18599999
      objectReference: {fileID: 0}
    - target: {fileID: 469386, guid: afbde1d23e194df4ebd0a82acfcca0dc, type: 3}
      propertyPath: m_LocalPosition.y
      value: 0
      objectReference: {fileID: 0}
    - target: {fileID: 469386, guid: afbde1d23e194df4ebd0a82acfcca0dc, type: 3}
      propertyPath: m_LocalPosition.z
      value: .458999991
      objectReference: {fileID: 0}
    - target: {fileID: 469386, guid: afbde1d23e194df4ebd0a82acfcca0dc, type: 3}
      propertyPath: m_LocalRotation.x
      value: 1.15202326e-07
      objectReference: {fileID: 0}
    - target: {fileID: 469386, guid: afbde1d23e194df4ebd0a82acfcca0dc, type: 3}
      propertyPath: m_LocalRotation.y
      value: .707106829
      objectReference: {fileID: 0}
    - target: {fileID: 469386, guid: afbde1d23e194df4ebd0a82acfcca0dc, type: 3}
      propertyPath: m_LocalRotation.z
      value: .707106829
      objectReference: {fileID: 0}
    - target: {fileID: 469386, guid: afbde1d23e194df4ebd0a82acfcca0dc, type: 3}
      propertyPath: m_LocalRotation.w
      value: -1.15202326e-07
      objectReference: {fileID: 0}
    - target: {fileID: 469386, guid: afbde1d23e194df4ebd0a82acfcca0dc, type: 3}
      propertyPath: m_RootOrder
      value: 24
      objectReference: {fileID: 0}
    m_RemovedComponents: []
  m_SourcePrefab: {fileID: 100100000, guid: afbde1d23e194df4ebd0a82acfcca0dc, type: 3}
--- !u!1001 &578851529
PrefabInstance:
  m_ObjectHideFlags: 0
  serializedVersion: 2
  m_Modification:
    m_TransformParent: {fileID: 0}
    m_Modifications:
    - target: {fileID: 408222, guid: 0c91618feef20c948a5f1566ab1d8275, type: 3}
      propertyPath: m_LocalPosition.x
      value: 1.26100004
      objectReference: {fileID: 0}
    - target: {fileID: 408222, guid: 0c91618feef20c948a5f1566ab1d8275, type: 3}
      propertyPath: m_LocalPosition.y
      value: 0
      objectReference: {fileID: 0}
    - target: {fileID: 408222, guid: 0c91618feef20c948a5f1566ab1d8275, type: 3}
      propertyPath: m_LocalPosition.z
      value: .449000001
      objectReference: {fileID: 0}
    - target: {fileID: 408222, guid: 0c91618feef20c948a5f1566ab1d8275, type: 3}
      propertyPath: m_LocalRotation.x
      value: 1.15202326e-07
      objectReference: {fileID: 0}
    - target: {fileID: 408222, guid: 0c91618feef20c948a5f1566ab1d8275, type: 3}
      propertyPath: m_LocalRotation.y
      value: .707106829
      objectReference: {fileID: 0}
    - target: {fileID: 408222, guid: 0c91618feef20c948a5f1566ab1d8275, type: 3}
      propertyPath: m_LocalRotation.z
      value: .707106829
      objectReference: {fileID: 0}
    - target: {fileID: 408222, guid: 0c91618feef20c948a5f1566ab1d8275, type: 3}
      propertyPath: m_LocalRotation.w
      value: -1.15202326e-07
      objectReference: {fileID: 0}
    - target: {fileID: 408222, guid: 0c91618feef20c948a5f1566ab1d8275, type: 3}
      propertyPath: m_RootOrder
      value: 2
      objectReference: {fileID: 0}
    m_RemovedComponents: []
  m_SourcePrefab: {fileID: 100100000, guid: 0c91618feef20c948a5f1566ab1d8275, type: 3}
--- !u!1001 &598331837
PrefabInstance:
  m_ObjectHideFlags: 0
  serializedVersion: 2
  m_Modification:
    m_TransformParent: {fileID: 0}
    m_Modifications:
    - target: {fileID: 496916, guid: 8eb36e8533db0334c88e703607efa78b, type: 3}
      propertyPath: m_LocalPosition.x
      value: -.559000015
      objectReference: {fileID: 0}
    - target: {fileID: 496916, guid: 8eb36e8533db0334c88e703607efa78b, type: 3}
      propertyPath: m_LocalPosition.y
      value: 0
      objectReference: {fileID: 0}
    - target: {fileID: 496916, guid: 8eb36e8533db0334c88e703607efa78b, type: 3}
      propertyPath: m_LocalPosition.z
      value: -.680000007
      objectReference: {fileID: 0}
    - target: {fileID: 496916, guid: 8eb36e8533db0334c88e703607efa78b, type: 3}
      propertyPath: m_LocalRotation.x
      value: -.496204019
      objectReference: {fileID: 0}
    - target: {fileID: 496916, guid: 8eb36e8533db0334c88e703607efa78b, type: 3}
      propertyPath: m_LocalRotation.y
      value: .615493596
      objectReference: {fileID: 0}
    - target: {fileID: 496916, guid: 8eb36e8533db0334c88e703607efa78b, type: 3}
      propertyPath: m_LocalRotation.z
      value: .604729891
      objectReference: {fileID: 0}
    - target: {fileID: 496916, guid: 8eb36e8533db0334c88e703607efa78b, type: 3}
      propertyPath: m_LocalRotation.w
      value: .096182473
      objectReference: {fileID: 0}
    - target: {fileID: 496916, guid: 8eb36e8533db0334c88e703607efa78b, type: 3}
      propertyPath: m_RootOrder
      value: 48
      objectReference: {fileID: 0}
    m_RemovedComponents: []
  m_SourcePrefab: {fileID: 100100000, guid: 8eb36e8533db0334c88e703607efa78b, type: 3}
--- !u!1001 &643998976
PrefabInstance:
  m_ObjectHideFlags: 0
  serializedVersion: 2
  m_Modification:
    m_TransformParent: {fileID: 0}
    m_Modifications:
    - target: {fileID: 460640, guid: 7e4fe71e8701ed147ac48614044e1c01, type: 3}
      propertyPath: m_LocalPosition.x
      value: -.156000003
      objectReference: {fileID: 0}
    - target: {fileID: 460640, guid: 7e4fe71e8701ed147ac48614044e1c01, type: 3}
      propertyPath: m_LocalPosition.y
      value: 0
      objectReference: {fileID: 0}
    - target: {fileID: 460640, guid: 7e4fe71e8701ed147ac48614044e1c01, type: 3}
      propertyPath: m_LocalPosition.z
      value: -.0810000002
      objectReference: {fileID: 0}
    - target: {fileID: 460640, guid: 7e4fe71e8701ed147ac48614044e1c01, type: 3}
      propertyPath: m_LocalRotation.x
      value: 1.15202326e-07
      objectReference: {fileID: 0}
    - target: {fileID: 460640, guid: 7e4fe71e8701ed147ac48614044e1c01, type: 3}
      propertyPath: m_LocalRotation.y
      value: .707106829
      objectReference: {fileID: 0}
    - target: {fileID: 460640, guid: 7e4fe71e8701ed147ac48614044e1c01, type: 3}
      propertyPath: m_LocalRotation.z
      value: .707106829
      objectReference: {fileID: 0}
    - target: {fileID: 460640, guid: 7e4fe71e8701ed147ac48614044e1c01, type: 3}
      propertyPath: m_LocalRotation.w
      value: -1.15202326e-07
      objectReference: {fileID: 0}
    - target: {fileID: 460640, guid: 7e4fe71e8701ed147ac48614044e1c01, type: 3}
      propertyPath: m_RootOrder
      value: 6
      objectReference: {fileID: 0}
    m_RemovedComponents: []
  m_SourcePrefab: {fileID: 100100000, guid: 7e4fe71e8701ed147ac48614044e1c01, type: 3}
--- !u!1001 &675741804
PrefabInstance:
  m_ObjectHideFlags: 0
  serializedVersion: 2
  m_Modification:
    m_TransformParent: {fileID: 0}
    m_Modifications:
    - target: {fileID: 421294, guid: fe154808fbcd4bc41a6e25d84d8fbbec, type: 3}
      propertyPath: m_LocalPosition.x
      value: -.298999995
      objectReference: {fileID: 0}
    - target: {fileID: 421294, guid: fe154808fbcd4bc41a6e25d84d8fbbec, type: 3}
      propertyPath: m_LocalPosition.y
      value: 0
      objectReference: {fileID: 0}
    - target: {fileID: 421294, guid: fe154808fbcd4bc41a6e25d84d8fbbec, type: 3}
      propertyPath: m_LocalPosition.z
      value: -.680000007
      objectReference: {fileID: 0}
    - target: {fileID: 421294, guid: fe154808fbcd4bc41a6e25d84d8fbbec, type: 3}
      propertyPath: m_LocalRotation.x
      value: .190072313
      objectReference: {fileID: 0}
    - target: {fileID: 421294, guid: fe154808fbcd4bc41a6e25d84d8fbbec, type: 3}
      propertyPath: m_LocalRotation.y
      value: -.789240599
      objectReference: {fileID: 0}
    - target: {fileID: 421294, guid: fe154808fbcd4bc41a6e25d84d8fbbec, type: 3}
      propertyPath: m_LocalRotation.z
      value: -.540576994
      objectReference: {fileID: 0}
    - target: {fileID: 421294, guid: fe154808fbcd4bc41a6e25d84d8fbbec, type: 3}
      propertyPath: m_LocalRotation.w
      value: -.220790461
      objectReference: {fileID: 0}
    - target: {fileID: 421294, guid: fe154808fbcd4bc41a6e25d84d8fbbec, type: 3}
      propertyPath: m_RootOrder
      value: 43
      objectReference: {fileID: 0}
    m_RemovedComponents: []
  m_SourcePrefab: {fileID: 100100000, guid: fe154808fbcd4bc41a6e25d84d8fbbec, type: 3}
--- !u!1001 &750931680
PrefabInstance:
  m_ObjectHideFlags: 0
  serializedVersion: 2
  m_Modification:
    m_TransformParent: {fileID: 0}
    m_Modifications:
    - target: {fileID: 451388, guid: 2ec0a21ef68f64a46864ad388da793c4, type: 3}
      propertyPath: m_LocalPosition.x
      value: 1.26100004
      objectReference: {fileID: 0}
    - target: {fileID: 451388, guid: 2ec0a21ef68f64a46864ad388da793c4, type: 3}
      propertyPath: m_LocalPosition.y
      value: 0
      objectReference: {fileID: 0}
    - target: {fileID: 451388, guid: 2ec0a21ef68f64a46864ad388da793c4, type: 3}
      propertyPath: m_LocalPosition.z
      value: -.111000001
      objectReference: {fileID: 0}
    - target: {fileID: 451388, guid: 2ec0a21ef68f64a46864ad388da793c4, type: 3}
      propertyPath: m_LocalRotation.x
      value: 1.15202326e-07
      objectReference: {fileID: 0}
    - target: {fileID: 451388, guid: 2ec0a21ef68f64a46864ad388da793c4, type: 3}
      propertyPath: m_LocalRotation.y
      value: .707106829
      objectReference: {fileID: 0}
    - target: {fileID: 451388, guid: 2ec0a21ef68f64a46864ad388da793c4, type: 3}
      propertyPath: m_LocalRotation.z
      value: .707106829
      objectReference: {fileID: 0}
    - target: {fileID: 451388, guid: 2ec0a21ef68f64a46864ad388da793c4, type: 3}
      propertyPath: m_LocalRotation.w
      value: -1.15202326e-07
      objectReference: {fileID: 0}
    - target: {fileID: 451388, guid: 2ec0a21ef68f64a46864ad388da793c4, type: 3}
      propertyPath: m_RootOrder
      value: 5
      objectReference: {fileID: 0}
    m_RemovedComponents: []
  m_SourcePrefab: {fileID: 100100000, guid: 2ec0a21ef68f64a46864ad388da793c4, type: 3}
--- !u!1001 &787387500
PrefabInstance:
  m_ObjectHideFlags: 0
  serializedVersion: 2
  m_Modification:
    m_TransformParent: {fileID: 0}
    m_Modifications:
    - target: {fileID: 431120, guid: f48808dd723ddf047afed72966b4bad4, type: 3}
      propertyPath: m_LocalPosition.x
      value: .490999997
      objectReference: {fileID: 0}
    - target: {fileID: 431120, guid: f48808dd723ddf047afed72966b4bad4, type: 3}
      propertyPath: m_LocalPosition.y
      value: 0
      objectReference: {fileID: 0}
    - target: {fileID: 431120, guid: f48808dd723ddf047afed72966b4bad4, type: 3}
      propertyPath: m_LocalPosition.z
      value: -.680000007
      objectReference: {fileID: 0}
    - target: {fileID: 431120, guid: f48808dd723ddf047afed72966b4bad4, type: 3}
      propertyPath: m_LocalRotation.x
      value: .107415438
      objectReference: {fileID: 0}
    - target: {fileID: 431120, guid: f48808dd723ddf047afed72966b4bad4, type: 3}
      propertyPath: m_LocalRotation.y
      value: .0891208872
      objectReference: {fileID: 0}
    - target: {fileID: 431120, guid: f48808dd723ddf047afed72966b4bad4, type: 3}
      propertyPath: m_LocalRotation.z
      value: .111321598
      objectReference: {fileID: 0}
    - target: {fileID: 431120, guid: f48808dd723ddf047afed72966b4bad4, type: 3}
      propertyPath: m_LocalRotation.w
      value: .983934402
      objectReference: {fileID: 0}
    - target: {fileID: 431120, guid: f48808dd723ddf047afed72966b4bad4, type: 3}
      propertyPath: m_RootOrder
      value: 28
      objectReference: {fileID: 0}
    m_RemovedComponents: []
  m_SourcePrefab: {fileID: 100100000, guid: f48808dd723ddf047afed72966b4bad4, type: 3}
--- !u!1001 &799196077
PrefabInstance:
  m_ObjectHideFlags: 0
  serializedVersion: 2
  m_Modification:
    m_TransformParent: {fileID: 0}
    m_Modifications:
    - target: {fileID: 473062, guid: 3e922353e24277445b297af942c2c4d3, type: 3}
      propertyPath: m_LocalPosition.x
      value: .381000012
      objectReference: {fileID: 0}
    - target: {fileID: 473062, guid: 3e922353e24277445b297af942c2c4d3, type: 3}
      propertyPath: m_LocalPosition.y
      value: 0
      objectReference: {fileID: 0}
    - target: {fileID: 473062, guid: 3e922353e24277445b297af942c2c4d3, type: 3}
      propertyPath: m_LocalPosition.z
      value: .479000002
      objectReference: {fileID: 0}
    - target: {fileID: 473062, guid: 3e922353e24277445b297af942c2c4d3, type: 3}
      propertyPath: m_LocalRotation.x
      value: .190072313
      objectReference: {fileID: 0}
    - target: {fileID: 473062, guid: 3e922353e24277445b297af942c2c4d3, type: 3}
      propertyPath: m_LocalRotation.y
      value: -.789240599
      objectReference: {fileID: 0}
    - target: {fileID: 473062, guid: 3e922353e24277445b297af942c2c4d3, type: 3}
      propertyPath: m_LocalRotation.z
      value: -.540576994
      objectReference: {fileID: 0}
    - target: {fileID: 473062, guid: 3e922353e24277445b297af942c2c4d3, type: 3}
      propertyPath: m_LocalRotation.w
      value: -.220790461
      objectReference: {fileID: 0}
    - target: {fileID: 473062, guid: 3e922353e24277445b297af942c2c4d3, type: 3}
      propertyPath: m_RootOrder
      value: 42
      objectReference: {fileID: 0}
    m_RemovedComponents: []
  m_SourcePrefab: {fileID: 100100000, guid: 3e922353e24277445b297af942c2c4d3, type: 3}
--- !u!1001 &852095095
PrefabInstance:
  m_ObjectHideFlags: 0
  serializedVersion: 2
  m_Modification:
    m_TransformParent: {fileID: 0}
    m_Modifications:
    - target: {fileID: 407778, guid: 7fa17baa3b5675444b8ceb73ad0fd39d, type: 3}
      propertyPath: m_LocalPosition.x
      value: 1.01100004
      objectReference: {fileID: 0}
    - target: {fileID: 407778, guid: 7fa17baa3b5675444b8ceb73ad0fd39d, type: 3}
      propertyPath: m_LocalPosition.y
      value: 0
      objectReference: {fileID: 0}
    - target: {fileID: 407778, guid: 7fa17baa3b5675444b8ceb73ad0fd39d, type: 3}
      propertyPath: m_LocalPosition.z
      value: .449000001
      objectReference: {fileID: 0}
    - target: {fileID: 407778, guid: 7fa17baa3b5675444b8ceb73ad0fd39d, type: 3}
      propertyPath: m_LocalRotation.x
      value: 1.15202326e-07
      objectReference: {fileID: 0}
    - target: {fileID: 407778, guid: 7fa17baa3b5675444b8ceb73ad0fd39d, type: 3}
      propertyPath: m_LocalRotation.y
      value: .707106829
      objectReference: {fileID: 0}
    - target: {fileID: 407778, guid: 7fa17baa3b5675444b8ceb73ad0fd39d, type: 3}
      propertyPath: m_LocalRotation.z
      value: .707106829
      objectReference: {fileID: 0}
    - target: {fileID: 407778, guid: 7fa17baa3b5675444b8ceb73ad0fd39d, type: 3}
      propertyPath: m_LocalRotation.w
      value: -1.15202326e-07
      objectReference: {fileID: 0}
    - target: {fileID: 407778, guid: 7fa17baa3b5675444b8ceb73ad0fd39d, type: 3}
      propertyPath: m_RootOrder
      value: 7
      objectReference: {fileID: 0}
    m_RemovedComponents: []
  m_SourcePrefab: {fileID: 100100000, guid: 7fa17baa3b5675444b8ceb73ad0fd39d, type: 3}
--- !u!1001 &858017454
PrefabInstance:
  m_ObjectHideFlags: 0
  serializedVersion: 2
  m_Modification:
    m_TransformParent: {fileID: 0}
    m_Modifications:
    - target: {fileID: 416864, guid: 408d43af6e2bac94da16afdd10f63f0f, type: 3}
      propertyPath: m_LocalPosition.x
      value: -.405999988
      objectReference: {fileID: 0}
    - target: {fileID: 416864, guid: 408d43af6e2bac94da16afdd10f63f0f, type: 3}
      propertyPath: m_LocalPosition.y
      value: 0
      objectReference: {fileID: 0}
    - target: {fileID: 416864, guid: 408d43af6e2bac94da16afdd10f63f0f, type: 3}
      propertyPath: m_LocalPosition.z
      value: -.0810000002
      objectReference: {fileID: 0}
    - target: {fileID: 416864, guid: 408d43af6e2bac94da16afdd10f63f0f, type: 3}
      propertyPath: m_LocalRotation.x
      value: 1.15202326e-07
      objectReference: {fileID: 0}
    - target: {fileID: 416864, guid: 408d43af6e2bac94da16afdd10f63f0f, type: 3}
      propertyPath: m_LocalRotation.y
      value: .707106829
      objectReference: {fileID: 0}
    - target: {fileID: 416864, guid: 408d43af6e2bac94da16afdd10f63f0f, type: 3}
      propertyPath: m_LocalRotation.z
      value: .707106829
      objectReference: {fileID: 0}
    - target: {fileID: 416864, guid: 408d43af6e2bac94da16afdd10f63f0f, type: 3}
      propertyPath: m_LocalRotation.w
      value: -1.15202326e-07
      objectReference: {fileID: 0}
    - target: {fileID: 416864, guid: 408d43af6e2bac94da16afdd10f63f0f, type: 3}
      propertyPath: m_RootOrder
      value: 11
      objectReference: {fileID: 0}
    m_RemovedComponents: []
  m_SourcePrefab: {fileID: 100100000, guid: 408d43af6e2bac94da16afdd10f63f0f, type: 3}
--- !u!1001 &918004179
PrefabInstance:
  m_ObjectHideFlags: 0
  serializedVersion: 2
  m_Modification:
    m_TransformParent: {fileID: 0}
    m_Modifications:
    - target: {fileID: 477072, guid: 3cfec4cf1fb2fc84a8f9c9a24eede5cf, type: 3}
      propertyPath: m_LocalPosition.x
      value: .240999997
      objectReference: {fileID: 0}
    - target: {fileID: 477072, guid: 3cfec4cf1fb2fc84a8f9c9a24eede5cf, type: 3}
      propertyPath: m_LocalPosition.y
      value: 0
      objectReference: {fileID: 0}
    - target: {fileID: 477072, guid: 3cfec4cf1fb2fc84a8f9c9a24eede5cf, type: 3}
      propertyPath: m_LocalPosition.z
      value: -.680000007
      objectReference: {fileID: 0}
    - target: {fileID: 477072, guid: 3cfec4cf1fb2fc84a8f9c9a24eede5cf, type: 3}
      propertyPath: m_LocalRotation.x
      value: -.57537818
      objectReference: {fileID: 0}
    - target: {fileID: 477072, guid: 3cfec4cf1fb2fc84a8f9c9a24eede5cf, type: 3}
      propertyPath: m_LocalRotation.y
      value: -.184493408
      objectReference: {fileID: 0}
    - target: {fileID: 477072, guid: 3cfec4cf1fb2fc84a8f9c9a24eede5cf, type: 3}
      propertyPath: m_LocalRotation.z
      value: .245802507
      objectReference: {fileID: 0}
    - target: {fileID: 477072, guid: 3cfec4cf1fb2fc84a8f9c9a24eede5cf, type: 3}
      propertyPath: m_LocalRotation.w
      value: .757946789
      objectReference: {fileID: 0}
    - target: {fileID: 477072, guid: 3cfec4cf1fb2fc84a8f9c9a24eede5cf, type: 3}
      propertyPath: m_RootOrder
      value: 33
      objectReference: {fileID: 0}
    m_RemovedComponents: []
  m_SourcePrefab: {fileID: 100100000, guid: 3cfec4cf1fb2fc84a8f9c9a24eede5cf, type: 3}
--- !u!1001 &1005712846
PrefabInstance:
  m_ObjectHideFlags: 0
  serializedVersion: 2
  m_Modification:
    m_TransformParent: {fileID: 0}
    m_Modifications:
    - target: {fileID: 481884, guid: 61261ce941d899344aab804851fdbf13, type: 3}
      propertyPath: m_LocalPosition.x
      value: .635999978
      objectReference: {fileID: 0}
    - target: {fileID: 481884, guid: 61261ce941d899344aab804851fdbf13, type: 3}
      propertyPath: m_LocalPosition.y
      value: 0
      objectReference: {fileID: 0}
    - target: {fileID: 481884, guid: 61261ce941d899344aab804851fdbf13, type: 3}
      propertyPath: m_LocalPosition.z
      value: .479000002
      objectReference: {fileID: 0}
    - target: {fileID: 481884, guid: 61261ce941d899344aab804851fdbf13, type: 3}
      propertyPath: m_LocalRotation.x
      value: -.863569915
      objectReference: {fileID: 0}
    - target: {fileID: 481884, guid: 61261ce941d899344aab804851fdbf13, type: 3}
      propertyPath: m_LocalRotation.y
      value: .0142383333
      objectReference: {fileID: 0}
    - target: {fileID: 481884, guid: 61261ce941d899344aab804851fdbf13, type: 3}
      propertyPath: m_LocalRotation.z
      value: -.489387393
      objectReference: {fileID: 0}
    - target: {fileID: 481884, guid: 61261ce941d899344aab804851fdbf13, type: 3}
      propertyPath: m_LocalRotation.w
      value: -.120600067
      objectReference: {fileID: 0}
    - target: {fileID: 481884, guid: 61261ce941d899344aab804851fdbf13, type: 3}
      propertyPath: m_RootOrder
      value: 37
      objectReference: {fileID: 0}
    m_RemovedComponents: []
  m_SourcePrefab: {fileID: 100100000, guid: 61261ce941d899344aab804851fdbf13, type: 3}
--- !u!1001 &1059608646
PrefabInstance:
  m_ObjectHideFlags: 0
  serializedVersion: 2
  m_Modification:
    m_TransformParent: {fileID: 0}
    m_Modifications:
    - target: {fileID: 485768, guid: 61dfa9230f6150741a861dd249a933ef, type: 3}
      propertyPath: m_LocalPosition.x
      value: -.925999999
      objectReference: {fileID: 0}
    - target: {fileID: 485768, guid: 61dfa9230f6150741a861dd249a933ef, type: 3}
      propertyPath: m_LocalPosition.y
      value: 0
      objectReference: {fileID: 0}
    - target: {fileID: 485768, guid: 61dfa9230f6150741a861dd249a933ef, type: 3}
      propertyPath: m_LocalPosition.z
      value: .469000012
      objectReference: {fileID: 0}
    - target: {fileID: 485768, guid: 61dfa9230f6150741a861dd249a933ef, type: 3}
      propertyPath: m_LocalRotation.x
      value: 1.15202326e-07
      objectReference: {fileID: 0}
    - target: {fileID: 485768, guid: 61dfa9230f6150741a861dd249a933ef, type: 3}
      propertyPath: m_LocalRotation.y
      value: .707106829
      objectReference: {fileID: 0}
    - target: {fileID: 485768, guid: 61dfa9230f6150741a861dd249a933ef, type: 3}
      propertyPath: m_LocalRotation.z
      value: .707106829
      objectReference: {fileID: 0}
    - target: {fileID: 485768, guid: 61dfa9230f6150741a861dd249a933ef, type: 3}
      propertyPath: m_LocalRotation.w
      value: -1.15202326e-07
      objectReference: {fileID: 0}
    - target: {fileID: 485768, guid: 61dfa9230f6150741a861dd249a933ef, type: 3}
      propertyPath: m_RootOrder
      value: 19
      objectReference: {fileID: 0}
    m_RemovedComponents: []
  m_SourcePrefab: {fileID: 100100000, guid: 61dfa9230f6150741a861dd249a933ef, type: 3}
--- !u!1001 &1067152835
PrefabInstance:
  m_ObjectHideFlags: 0
  serializedVersion: 2
  m_Modification:
    m_TransformParent: {fileID: 0}
    m_Modifications:
    - target: {fileID: 413794, guid: 024878416813e4d4584ce0b722a07abd, type: 3}
      propertyPath: m_LocalPosition.x
      value: 1.14900005
      objectReference: {fileID: 0}
    - target: {fileID: 413794, guid: 024878416813e4d4584ce0b722a07abd, type: 3}
      propertyPath: m_LocalPosition.y
      value: 0
      objectReference: {fileID: 0}
    - target: {fileID: 413794, guid: 024878416813e4d4584ce0b722a07abd, type: 3}
      propertyPath: m_LocalPosition.z
      value: .479000002
      objectReference: {fileID: 0}
    - target: {fileID: 413794, guid: 024878416813e4d4584ce0b722a07abd, type: 3}
      propertyPath: m_LocalRotation.x
      value: .107415438
      objectReference: {fileID: 0}
    - target: {fileID: 413794, guid: 024878416813e4d4584ce0b722a07abd, type: 3}
      propertyPath: m_LocalRotation.y
      value: .0891208872
      objectReference: {fileID: 0}
    - target: {fileID: 413794, guid: 024878416813e4d4584ce0b722a07abd, type: 3}
      propertyPath: m_LocalRotation.z
      value: .111321598
      objectReference: {fileID: 0}
    - target: {fileID: 413794, guid: 024878416813e4d4584ce0b722a07abd, type: 3}
      propertyPath: m_LocalRotation.w
      value: .983934402
      objectReference: {fileID: 0}
    - target: {fileID: 413794, guid: 024878416813e4d4584ce0b722a07abd, type: 3}
      propertyPath: m_RootOrder
      value: 27
      objectReference: {fileID: 0}
    m_RemovedComponents: []
  m_SourcePrefab: {fileID: 100100000, guid: 024878416813e4d4584ce0b722a07abd, type: 3}
--- !u!1001 &1087100780
PrefabInstance:
  m_ObjectHideFlags: 0
  serializedVersion: 2
  m_Modification:
    m_TransformParent: {fileID: 0}
    m_Modifications:
    - target: {fileID: 424970, guid: 630d071487eaca14d9b95c823ddb7dfc, type: 3}
      propertyPath: m_LocalPosition.x
      value: .120999999
      objectReference: {fileID: 0}
    - target: {fileID: 424970, guid: 630d071487eaca14d9b95c823ddb7dfc, type: 3}
      propertyPath: m_LocalPosition.y
      value: 0
      objectReference: {fileID: 0}
    - target: {fileID: 424970, guid: 630d071487eaca14d9b95c823ddb7dfc, type: 3}
      propertyPath: m_LocalPosition.z
      value: -.0810000002
      objectReference: {fileID: 0}
    - target: {fileID: 424970, guid: 630d071487eaca14d9b95c823ddb7dfc, type: 3}
      propertyPath: m_LocalRotation.x
      value: -.496204019
      objectReference: {fileID: 0}
    - target: {fileID: 424970, guid: 630d071487eaca14d9b95c823ddb7dfc, type: 3}
      propertyPath: m_LocalRotation.y
      value: .615493596
      objectReference: {fileID: 0}
    - target: {fileID: 424970, guid: 630d071487eaca14d9b95c823ddb7dfc, type: 3}
      propertyPath: m_LocalRotation.z
      value: .604729891
      objectReference: {fileID: 0}
    - target: {fileID: 424970, guid: 630d071487eaca14d9b95c823ddb7dfc, type: 3}
      propertyPath: m_LocalRotation.w
      value: .096182473
      objectReference: {fileID: 0}
    - target: {fileID: 424970, guid: 630d071487eaca14d9b95c823ddb7dfc, type: 3}
      propertyPath: m_RootOrder
      value: 50
      objectReference: {fileID: 0}
    m_RemovedComponents: []
  m_SourcePrefab: {fileID: 100100000, guid: 630d071487eaca14d9b95c823ddb7dfc, type: 3}
--- !u!1001 &1111517965
PrefabInstance:
  m_ObjectHideFlags: 0
  serializedVersion: 2
  m_Modification:
    m_TransformParent: {fileID: 0}
    m_Modifications:
    - target: {fileID: 411128, guid: 2b46cc393735f634f89cb88a9e97aaa7, type: 3}
      propertyPath: m_LocalPosition.x
      value: .750999987
      objectReference: {fileID: 0}
    - target: {fileID: 411128, guid: 2b46cc393735f634f89cb88a9e97aaa7, type: 3}
      propertyPath: m_LocalPosition.y
      value: 0
      objectReference: {fileID: 0}
    - target: {fileID: 411128, guid: 2b46cc393735f634f89cb88a9e97aaa7, type: 3}
      propertyPath: m_LocalPosition.z
      value: -.111000001
      objectReference: {fileID: 0}
    - target: {fileID: 411128, guid: 2b46cc393735f634f89cb88a9e97aaa7, type: 3}
      propertyPath: m_LocalRotation.x
      value: 1.15202326e-07
      objectReference: {fileID: 0}
    - target: {fileID: 411128, guid: 2b46cc393735f634f89cb88a9e97aaa7, type: 3}
      propertyPath: m_LocalRotation.y
      value: .707106829
      objectReference: {fileID: 0}
    - target: {fileID: 411128, guid: 2b46cc393735f634f89cb88a9e97aaa7, type: 3}
      propertyPath: m_LocalRotation.z
      value: .707106829
      objectReference: {fileID: 0}
    - target: {fileID: 411128, guid: 2b46cc393735f634f89cb88a9e97aaa7, type: 3}
      propertyPath: m_LocalRotation.w
      value: -1.15202326e-07
      objectReference: {fileID: 0}
    - target: {fileID: 411128, guid: 2b46cc393735f634f89cb88a9e97aaa7, type: 3}
      propertyPath: m_RootOrder
      value: 15
      objectReference: {fileID: 0}
    m_RemovedComponents: []
  m_SourcePrefab: {fileID: 100100000, guid: 2b46cc393735f634f89cb88a9e97aaa7, type: 3}
--- !u!1001 &1118601129
PrefabInstance:
  m_ObjectHideFlags: 0
  serializedVersion: 2
  m_Modification:
    m_TransformParent: {fileID: 0}
    m_Modifications:
    - target: {fileID: 423422, guid: 002ce902530453c4f8c8289934f2578a, type: 3}
      propertyPath: m_LocalPosition.x
      value: -.656000018
      objectReference: {fileID: 0}
    - target: {fileID: 423422, guid: 002ce902530453c4f8c8289934f2578a, type: 3}
      propertyPath: m_LocalPosition.y
      value: 0
      objectReference: {fileID: 0}
    - target: {fileID: 423422, guid: 002ce902530453c4f8c8289934f2578a, type: 3}
      propertyPath: m_LocalPosition.z
      value: .469000012
      objectReference: {fileID: 0}
    - target: {fileID: 423422, guid: 002ce902530453c4f8c8289934f2578a, type: 3}
      propertyPath: m_LocalRotation.x
      value: 1.15202326e-07
      objectReference: {fileID: 0}
    - target: {fileID: 423422, guid: 002ce902530453c4f8c8289934f2578a, type: 3}
      propertyPath: m_LocalRotation.y
      value: .707106829
      objectReference: {fileID: 0}
    - target: {fileID: 423422, guid: 002ce902530453c4f8c8289934f2578a, type: 3}
      propertyPath: m_LocalRotation.z
      value: .707106829
      objectReference: {fileID: 0}
    - target: {fileID: 423422, guid: 002ce902530453c4f8c8289934f2578a, type: 3}
      propertyPath: m_LocalRotation.w
      value: -1.15202326e-07
      objectReference: {fileID: 0}
    - target: {fileID: 423422, guid: 002ce902530453c4f8c8289934f2578a, type: 3}
      propertyPath: m_RootOrder
      value: 14
      objectReference: {fileID: 0}
    m_RemovedComponents: []
  m_SourcePrefab: {fileID: 100100000, guid: 002ce902530453c4f8c8289934f2578a, type: 3}
--- !u!1001 &1271200170
PrefabInstance:
  m_ObjectHideFlags: 0
  serializedVersion: 2
  m_Modification:
    m_TransformParent: {fileID: 0}
    m_Modifications:
    - target: {fileID: 466722, guid: b45691375aa24164dbfa7ad14ebec8f2, type: 3}
      propertyPath: m_LocalPosition.x
      value: .221000001
      objectReference: {fileID: 0}
    - target: {fileID: 466722, guid: b45691375aa24164dbfa7ad14ebec8f2, type: 3}
      propertyPath: m_LocalPosition.y
      value: 0
      objectReference: {fileID: 0}
    - target: {fileID: 466722, guid: b45691375aa24164dbfa7ad14ebec8f2, type: 3}
      propertyPath: m_LocalPosition.z
      value: -.120999999
      objectReference: {fileID: 0}
    - target: {fileID: 466722, guid: b45691375aa24164dbfa7ad14ebec8f2, type: 3}
      propertyPath: m_LocalRotation.x
      value: 1.15202326e-07
      objectReference: {fileID: 0}
    - target: {fileID: 466722, guid: b45691375aa24164dbfa7ad14ebec8f2, type: 3}
      propertyPath: m_LocalRotation.y
      value: .707106829
      objectReference: {fileID: 0}
    - target: {fileID: 466722, guid: b45691375aa24164dbfa7ad14ebec8f2, type: 3}
      propertyPath: m_LocalRotation.z
      value: .707106829
      objectReference: {fileID: 0}
    - target: {fileID: 466722, guid: b45691375aa24164dbfa7ad14ebec8f2, type: 3}
      propertyPath: m_LocalRotation.w
      value: -1.15202326e-07
      objectReference: {fileID: 0}
    - target: {fileID: 466722, guid: b45691375aa24164dbfa7ad14ebec8f2, type: 3}
      propertyPath: m_RootOrder
      value: 25
      objectReference: {fileID: 0}
    m_RemovedComponents: []
  m_SourcePrefab: {fileID: 100100000, guid: b45691375aa24164dbfa7ad14ebec8f2, type: 3}
--- !u!1001 &1342337710
PrefabInstance:
  m_ObjectHideFlags: 0
  serializedVersion: 2
  m_Modification:
    m_TransformParent: {fileID: 0}
    m_Modifications:
    - target: {fileID: 499390, guid: 70132c1c562fb03419f08eabde6d6e20, type: 3}
      propertyPath: m_LocalPosition.x
      value: .898999989
      objectReference: {fileID: 0}
    - target: {fileID: 499390, guid: 70132c1c562fb03419f08eabde6d6e20, type: 3}
      propertyPath: m_LocalPosition.y
      value: 0
      objectReference: {fileID: 0}
    - target: {fileID: 499390, guid: 70132c1c562fb03419f08eabde6d6e20, type: 3}
      propertyPath: m_LocalPosition.z
      value: .479000002
      objectReference: {fileID: 0}
    - target: {fileID: 499390, guid: 70132c1c562fb03419f08eabde6d6e20, type: 3}
      propertyPath: m_LocalRotation.x
      value: -.57537818
      objectReference: {fileID: 0}
    - target: {fileID: 499390, guid: 70132c1c562fb03419f08eabde6d6e20, type: 3}
      propertyPath: m_LocalRotation.y
      value: -.184493408
      objectReference: {fileID: 0}
    - target: {fileID: 499390, guid: 70132c1c562fb03419f08eabde6d6e20, type: 3}
      propertyPath: m_LocalRotation.z
      value: .245802507
      objectReference: {fileID: 0}
    - target: {fileID: 499390, guid: 70132c1c562fb03419f08eabde6d6e20, type: 3}
      propertyPath: m_LocalRotation.w
      value: .757946789
      objectReference: {fileID: 0}
    - target: {fileID: 499390, guid: 70132c1c562fb03419f08eabde6d6e20, type: 3}
      propertyPath: m_RootOrder
      value: 32
      objectReference: {fileID: 0}
    m_RemovedComponents: []
  m_SourcePrefab: {fileID: 100100000, guid: 70132c1c562fb03419f08eabde6d6e20, type: 3}
--- !u!1001 &1351953269
PrefabInstance:
  m_ObjectHideFlags: 0
  serializedVersion: 2
  m_Modification:
    m_TransformParent: {fileID: 0}
    m_Modifications:
    - target: {fileID: 477394, guid: 195cbda276432fc4688c35cecf923faa, type: 3}
      propertyPath: m_LocalPosition.x
      value: .120999999
      objectReference: {fileID: 0}
    - target: {fileID: 477394, guid: 195cbda276432fc4688c35cecf923faa, type: 3}
      propertyPath: m_LocalPosition.y
      value: 0
      objectReference: {fileID: 0}
    - target: {fileID: 477394, guid: 195cbda276432fc4688c35cecf923faa, type: 3}
      propertyPath: m_LocalPosition.z
      value: .479000002
      objectReference: {fileID: 0}
    - target: {fileID: 477394, guid: 195cbda276432fc4688c35cecf923faa, type: 3}
      propertyPath: m_LocalRotation.x
      value: -.496204019
      objectReference: {fileID: 0}
    - target: {fileID: 477394, guid: 195cbda276432fc4688c35cecf923faa, type: 3}
      propertyPath: m_LocalRotation.y
      value: .615493596
      objectReference: {fileID: 0}
    - target: {fileID: 477394, guid: 195cbda276432fc4688c35cecf923faa, type: 3}
      propertyPath: m_LocalRotation.z
      value: .604729891
      objectReference: {fileID: 0}
    - target: {fileID: 477394, guid: 195cbda276432fc4688c35cecf923faa, type: 3}
      propertyPath: m_LocalRotation.w
      value: .096182473
      objectReference: {fileID: 0}
    - target: {fileID: 477394, guid: 195cbda276432fc4688c35cecf923faa, type: 3}
      propertyPath: m_RootOrder
      value: 47
      objectReference: {fileID: 0}
    m_RemovedComponents: []
  m_SourcePrefab: {fileID: 100100000, guid: 195cbda276432fc4688c35cecf923faa, type: 3}
--- !u!1001 &1369133342
PrefabInstance:
  m_ObjectHideFlags: 0
  serializedVersion: 2
  m_Modification:
    m_TransformParent: {fileID: 0}
    m_Modifications:
    - target: {fileID: 407348, guid: d9a3ec0dc2aae4e43af8b98e0eeb7662, type: 3}
      propertyPath: m_LocalPosition.x
      value: -.925999999
      objectReference: {fileID: 0}
    - target: {fileID: 407348, guid: d9a3ec0dc2aae4e43af8b98e0eeb7662, type: 3}
      propertyPath: m_LocalPosition.y
      value: 0
      objectReference: {fileID: 0}
    - target: {fileID: 407348, guid: d9a3ec0dc2aae4e43af8b98e0eeb7662, type: 3}
      propertyPath: m_LocalPosition.z
      value: -.0810000002
      objectReference: {fileID: 0}
    - target: {fileID: 407348, guid: d9a3ec0dc2aae4e43af8b98e0eeb7662, type: 3}
      propertyPath: m_LocalRotation.x
      value: 1.15202326e-07
      objectReference: {fileID: 0}
    - target: {fileID: 407348, guid: d9a3ec0dc2aae4e43af8b98e0eeb7662, type: 3}
      propertyPath: m_LocalRotation.y
      value: .707106829
      objectReference: {fileID: 0}
    - target: {fileID: 407348, guid: d9a3ec0dc2aae4e43af8b98e0eeb7662, type: 3}
      propertyPath: m_LocalRotation.z
      value: .707106829
      objectReference: {fileID: 0}
    - target: {fileID: 407348, guid: d9a3ec0dc2aae4e43af8b98e0eeb7662, type: 3}
      propertyPath: m_LocalRotation.w
      value: -1.15202326e-07
      objectReference: {fileID: 0}
    - target: {fileID: 407348, guid: d9a3ec0dc2aae4e43af8b98e0eeb7662, type: 3}
      propertyPath: m_RootOrder
      value: 21
      objectReference: {fileID: 0}
    m_RemovedComponents: []
  m_SourcePrefab: {fileID: 100100000, guid: d9a3ec0dc2aae4e43af8b98e0eeb7662, type: 3}
--- !u!1001 &1387217427
PrefabInstance:
  m_ObjectHideFlags: 0
  serializedVersion: 2
  m_Modification:
    m_TransformParent: {fileID: 0}
    m_Modifications:
    - target: {fileID: 442502, guid: 2f40dfe8a438c40419d0a77209227a6e, type: 3}
      propertyPath: m_LocalPosition.x
      value: -1.296
      objectReference: {fileID: 0}
    - target: {fileID: 442502, guid: 2f40dfe8a438c40419d0a77209227a6e, type: 3}
      propertyPath: m_LocalPosition.y
      value: 0
      objectReference: {fileID: 0}
    - target: {fileID: 442502, guid: 2f40dfe8a438c40419d0a77209227a6e, type: 3}
      propertyPath: m_LocalPosition.z
      value: .488999993
      objectReference: {fileID: 0}
    - target: {fileID: 442502, guid: 2f40dfe8a438c40419d0a77209227a6e, type: 3}
      propertyPath: m_LocalRotation.x
      value: -.496204019
      objectReference: {fileID: 0}
    - target: {fileID: 442502, guid: 2f40dfe8a438c40419d0a77209227a6e, type: 3}
      propertyPath: m_LocalRotation.y
      value: .615493596
      objectReference: {fileID: 0}
    - target: {fileID: 442502, guid: 2f40dfe8a438c40419d0a77209227a6e, type: 3}
      propertyPath: m_LocalRotation.z
      value: .604729891
      objectReference: {fileID: 0}
    - target: {fileID: 442502, guid: 2f40dfe8a438c40419d0a77209227a6e, type: 3}
      propertyPath: m_LocalRotation.w
      value: .096182473
      objectReference: {fileID: 0}
    - target: {fileID: 442502, guid: 2f40dfe8a438c40419d0a77209227a6e, type: 3}
      propertyPath: m_RootOrder
      value: 49
      objectReference: {fileID: 0}
    m_RemovedComponents: []
  m_SourcePrefab: {fileID: 100100000, guid: 2f40dfe8a438c40419d0a77209227a6e, type: 3}
--- !u!1001 &1408869117
PrefabInstance:
  m_ObjectHideFlags: 0
  serializedVersion: 2
  m_Modification:
    m_TransformParent: {fileID: 0}
    m_Modifications:
    - target: {fileID: 464100, guid: acfc696393912ec4d9d387c260264026, type: 3}
      propertyPath: m_LocalPosition.x
      value: -.495999992
      objectReference: {fileID: 0}
    - target: {fileID: 464100, guid: acfc696393912ec4d9d387c260264026, type: 3}
      propertyPath: m_LocalPosition.y
      value: 0
      objectReference: {fileID: 0}
    - target: {fileID: 464100, guid: acfc696393912ec4d9d387c260264026, type: 3}
      propertyPath: m_LocalPosition.z
      value: .488999993
      objectReference: {fileID: 0}
    - target: {fileID: 464100, guid: acfc696393912ec4d9d387c260264026, type: 3}
      propertyPath: m_LocalRotation.x
      value: -.57537818
      objectReference: {fileID: 0}
    - target: {fileID: 464100, guid: acfc696393912ec4d9d387c260264026, type: 3}
      propertyPath: m_LocalRotation.y
      value: -.184493408
      objectReference: {fileID: 0}
    - target: {fileID: 464100, guid: acfc696393912ec4d9d387c260264026, type: 3}
      propertyPath: m_LocalRotation.z
      value: .245802507
      objectReference: {fileID: 0}
    - target: {fileID: 464100, guid: acfc696393912ec4d9d387c260264026, type: 3}
      propertyPath: m_LocalRotation.w
      value: .757946789
      objectReference: {fileID: 0}
    - target: {fileID: 464100, guid: acfc696393912ec4d9d387c260264026, type: 3}
      propertyPath: m_RootOrder
      value: 34
      objectReference: {fileID: 0}
    m_RemovedComponents: []
  m_SourcePrefab: {fileID: 100100000, guid: acfc696393912ec4d9d387c260264026, type: 3}
--- !u!1001 &1429271561
PrefabInstance:
  m_ObjectHideFlags: 0
  serializedVersion: 2
  m_Modification:
    m_TransformParent: {fileID: 0}
    m_Modifications:
    - target: {fileID: 417476, guid: 12c69a31240dca742abe09b6c9abc1f0, type: 3}
      propertyPath: m_LocalPosition.x
      value: -.395999998
      objectReference: {fileID: 0}
    - target: {fileID: 417476, guid: 12c69a31240dca742abe09b6c9abc1f0, type: 3}
      propertyPath: m_LocalPosition.y
      value: 0
      objectReference: {fileID: 0}
    - target: {fileID: 417476, guid: 12c69a31240dca742abe09b6c9abc1f0, type: 3}
      propertyPath: m_LocalPosition.z
      value: .469000012
      objectReference: {fileID: 0}
    - target: {fileID: 417476, guid: 12c69a31240dca742abe09b6c9abc1f0, type: 3}
      propertyPath: m_LocalRotation.x
      value: 1.15202326e-07
      objectReference: {fileID: 0}
    - target: {fileID: 417476, guid: 12c69a31240dca742abe09b6c9abc1f0, type: 3}
      propertyPath: m_LocalRotation.y
      value: .707106829
      objectReference: {fileID: 0}
    - target: {fileID: 417476, guid: 12c69a31240dca742abe09b6c9abc1f0, type: 3}
      propertyPath: m_LocalRotation.z
      value: .707106829
      objectReference: {fileID: 0}
    - target: {fileID: 417476, guid: 12c69a31240dca742abe09b6c9abc1f0, type: 3}
      propertyPath: m_LocalRotation.w
      value: -1.15202326e-07
      objectReference: {fileID: 0}
    - target: {fileID: 417476, guid: 12c69a31240dca742abe09b6c9abc1f0, type: 3}
      propertyPath: m_RootOrder
      value: 9
      objectReference: {fileID: 0}
    m_RemovedComponents: []
  m_SourcePrefab: {fileID: 100100000, guid: 12c69a31240dca742abe09b6c9abc1f0, type: 3}
--- !u!1001 &1446575924
PrefabInstance:
  m_ObjectHideFlags: 0
  serializedVersion: 2
  m_Modification:
    m_TransformParent: {fileID: 0}
    m_Modifications:
    - target: {fileID: 419080, guid: af9661a118d78d34498796cfeae92dfb, type: 3}
      propertyPath: m_LocalPosition.x
      value: .58099997
      objectReference: {fileID: 0}
    - target: {fileID: 419080, guid: af9661a118d78d34498796cfeae92dfb, type: 3}
      propertyPath: m_LocalPosition.y
      value: 0
      objectReference: {fileID: 0}
    - target: {fileID: 419080, guid: af9661a118d78d34498796cfeae92dfb, type: 3}
      propertyPath: m_LocalPosition.z
      value: -.699999988
      objectReference: {fileID: 0}
    - target: {fileID: 419080, guid: af9661a118d78d34498796cfeae92dfb, type: 3}
      propertyPath: m_LocalRotation.x
      value: 1.15202326e-07
      objectReference: {fileID: 0}
    - target: {fileID: 419080, guid: af9661a118d78d34498796cfeae92dfb, type: 3}
      propertyPath: m_LocalRotation.y
      value: .707106829
      objectReference: {fileID: 0}
    - target: {fileID: 419080, guid: af9661a118d78d34498796cfeae92dfb, type: 3}
      propertyPath: m_LocalRotation.z
      value: .707106829
      objectReference: {fileID: 0}
    - target: {fileID: 419080, guid: af9661a118d78d34498796cfeae92dfb, type: 3}
      propertyPath: m_LocalRotation.w
      value: -1.15202326e-07
      objectReference: {fileID: 0}
    - target: {fileID: 419080, guid: af9661a118d78d34498796cfeae92dfb, type: 3}
      propertyPath: m_RootOrder
      value: 3
      objectReference: {fileID: 0}
    m_RemovedComponents: []
  m_SourcePrefab: {fileID: 100100000, guid: af9661a118d78d34498796cfeae92dfb, type: 3}
--- !u!1001 &1451164783
PrefabInstance:
  m_ObjectHideFlags: 0
  serializedVersion: 2
  m_Modification:
    m_TransformParent: {fileID: 0}
    m_Modifications:
    - target: {fileID: 449312, guid: ca8bafd9a86d1c84a9a66e519b492835, type: 3}
      propertyPath: m_LocalPosition.x
      value: 1.01100004
      objectReference: {fileID: 0}
    - target: {fileID: 449312, guid: ca8bafd9a86d1c84a9a66e519b492835, type: 3}
      propertyPath: m_LocalPosition.y
      value: 0
      objectReference: {fileID: 0}
    - target: {fileID: 449312, guid: ca8bafd9a86d1c84a9a66e519b492835, type: 3}
      propertyPath: m_LocalPosition.z
      value: -.111000001
      objectReference: {fileID: 0}
    - target: {fileID: 449312, guid: ca8bafd9a86d1c84a9a66e519b492835, type: 3}
      propertyPath: m_LocalRotation.x
      value: 1.15202326e-07
      objectReference: {fileID: 0}
    - target: {fileID: 449312, guid: ca8bafd9a86d1c84a9a66e519b492835, type: 3}
      propertyPath: m_LocalRotation.y
      value: .707106829
      objectReference: {fileID: 0}
    - target: {fileID: 449312, guid: ca8bafd9a86d1c84a9a66e519b492835, type: 3}
      propertyPath: m_LocalRotation.z
      value: .707106829
      objectReference: {fileID: 0}
    - target: {fileID: 449312, guid: ca8bafd9a86d1c84a9a66e519b492835, type: 3}
      propertyPath: m_LocalRotation.w
      value: -1.15202326e-07
      objectReference: {fileID: 0}
    - target: {fileID: 449312, guid: ca8bafd9a86d1c84a9a66e519b492835, type: 3}
      propertyPath: m_RootOrder
      value: 10
      objectReference: {fileID: 0}
    m_RemovedComponents: []
  m_SourcePrefab: {fileID: 100100000, guid: ca8bafd9a86d1c84a9a66e519b492835, type: 3}
--- !u!1001 &1595975300
PrefabInstance:
  m_ObjectHideFlags: 0
  serializedVersion: 2
  m_Modification:
    m_TransformParent: {fileID: 0}
    m_Modifications:
    - target: {fileID: 434982, guid: 52d0039c33d4bb84f90b90803692252b, type: 3}
      propertyPath: m_LocalPosition.x
      value: -.765999973
      objectReference: {fileID: 0}
    - target: {fileID: 434982, guid: 52d0039c33d4bb84f90b90803692252b, type: 3}
      propertyPath: m_LocalPosition.y
      value: 0
      objectReference: {fileID: 0}
    - target: {fileID: 434982, guid: 52d0039c33d4bb84f90b90803692252b, type: 3}
      propertyPath: m_LocalPosition.z
      value: .488999993
      objectReference: {fileID: 0}
    - target: {fileID: 434982, guid: 52d0039c33d4bb84f90b90803692252b, type: 3}
      propertyPath: m_LocalRotation.x
      value: -.863569915
      objectReference: {fileID: 0}
    - target: {fileID: 434982, guid: 52d0039c33d4bb84f90b90803692252b, type: 3}
      propertyPath: m_LocalRotation.y
      value: .0142383333
      objectReference: {fileID: 0}
    - target: {fileID: 434982, guid: 52d0039c33d4bb84f90b90803692252b, type: 3}
      propertyPath: m_LocalRotation.z
      value: -.489387393
      objectReference: {fileID: 0}
    - target: {fileID: 434982, guid: 52d0039c33d4bb84f90b90803692252b, type: 3}
      propertyPath: m_LocalRotation.w
      value: -.120600067
      objectReference: {fileID: 0}
    - target: {fileID: 434982, guid: 52d0039c33d4bb84f90b90803692252b, type: 3}
      propertyPath: m_RootOrder
      value: 39
      objectReference: {fileID: 0}
    m_RemovedComponents: []
  m_SourcePrefab: {fileID: 100100000, guid: 52d0039c33d4bb84f90b90803692252b, type: 3}
--- !u!1 &1606350817
GameObject:
  m_ObjectHideFlags: 0
  m_CorrespondingSourceObject: {fileID: 0}
  m_PrefabInstance: {fileID: 0}
  m_PrefabAsset: {fileID: 0}
  serializedVersion: 6
  m_Component:
  - component: {fileID: 1606350822}
  - component: {fileID: 1606350821}
  - component: {fileID: 1606350819}
  - component: {fileID: 1606350818}
  m_Layer: 0
  m_Name: Main Camera
  m_TagString: MainCamera
  m_Icon: {fileID: 0}
  m_NavMeshLayer: 0
  m_StaticEditorFlags: 0
  m_IsActive: 1
--- !u!81 &1606350818
AudioListener:
  m_ObjectHideFlags: 0
  m_CorrespondingSourceObject: {fileID: 0}
  m_PrefabInstance: {fileID: 0}
  m_PrefabAsset: {fileID: 0}
  m_GameObject: {fileID: 1606350817}
  m_Enabled: 1
--- !u!124 &1606350819
Behaviour:
  m_ObjectHideFlags: 0
  m_CorrespondingSourceObject: {fileID: 0}
  m_PrefabInstance: {fileID: 0}
  m_PrefabAsset: {fileID: 0}
  m_GameObject: {fileID: 1606350817}
  m_Enabled: 1
--- !u!20 &1606350821
Camera:
  m_ObjectHideFlags: 0
  m_CorrespondingSourceObject: {fileID: 0}
  m_PrefabInstance: {fileID: 0}
  m_PrefabAsset: {fileID: 0}
  m_GameObject: {fileID: 1606350817}
  m_Enabled: 1
  serializedVersion: 2
  m_ClearFlags: 2
  m_BackGroundColor: {r: 0.10980392, g: 0.12941177, b: 0.2, a: 0.02745098}
  m_projectionMatrixMode: 1
  m_GateFitMode: 2
  m_FOVAxisMode: 0
  m_SensorSize: {x: 36, y: 24}
  m_LensShift: {x: 0, y: 0}
  m_FocalLength: 50
  m_NormalizedViewPortRect:
    serializedVersion: 2
    x: 0
    y: 0
    width: 1
    height: 1
  near clip plane: 0.3
  far clip plane: 1000
  field of view: 30
  orthographic: 0
  orthographic size: 5
  m_Depth: -1
  m_CullingMask:
    serializedVersion: 2
    m_Bits: 4294967295
  m_RenderingPath: -1
  m_TargetTexture: {fileID: 0}
  m_TargetDisplay: 0
  m_TargetEye: 3
  m_HDR: 0
  m_AllowMSAA: 1
  m_AllowDynamicResolution: 0
  m_ForceIntoRT: 0
  m_OcclusionCulling: 1
  m_StereoConvergence: 10
  m_StereoSeparation: 0.022
--- !u!4 &1606350822
Transform:
  m_ObjectHideFlags: 0
  m_CorrespondingSourceObject: {fileID: 0}
  m_PrefabInstance: {fileID: 0}
  m_PrefabAsset: {fileID: 0}
  m_GameObject: {fileID: 1606350817}
  m_LocalRotation: {x: 0.7071068, y: 0, z: 0, w: 0.7071067}
  m_LocalPosition: {x: 0, y: 3.55, z: 0}
  m_LocalScale: {x: 1, y: 1, z: 1}
  m_Children: []
  m_Father: {fileID: 0}
  m_RootOrder: 0
  m_LocalEulerAnglesHint: {x: 0, y: 0, z: 0}
--- !u!1001 &1630244303
PrefabInstance:
  m_ObjectHideFlags: 0
  serializedVersion: 2
  m_Modification:
    m_TransformParent: {fileID: 0}
    m_Modifications:
    - target: {fileID: 465858, guid: 627e36a0129013a47a9ff4c741c3f6d6, type: 3}
      propertyPath: m_LocalPosition.x
      value: -.246000007
      objectReference: {fileID: 0}
    - target: {fileID: 465858, guid: 627e36a0129013a47a9ff4c741c3f6d6, type: 3}
      propertyPath: m_LocalPosition.y
      value: 0
      objectReference: {fileID: 0}
    - target: {fileID: 465858, guid: 627e36a0129013a47a9ff4c741c3f6d6, type: 3}
      propertyPath: m_LocalPosition.z
      value: -.0610000007
      objectReference: {fileID: 0}
    - target: {fileID: 465858, guid: 627e36a0129013a47a9ff4c741c3f6d6, type: 3}
      propertyPath: m_LocalRotation.x
      value: .107415438
      objectReference: {fileID: 0}
    - target: {fileID: 465858, guid: 627e36a0129013a47a9ff4c741c3f6d6, type: 3}
      propertyPath: m_LocalRotation.y
      value: .0891208872
      objectReference: {fileID: 0}
    - target: {fileID: 465858, guid: 627e36a0129013a47a9ff4c741c3f6d6, type: 3}
      propertyPath: m_LocalRotation.z
      value: .111321598
      objectReference: {fileID: 0}
    - target: {fileID: 465858, guid: 627e36a0129013a47a9ff4c741c3f6d6, type: 3}
      propertyPath: m_LocalRotation.w
      value: .983934402
      objectReference: {fileID: 0}
    - target: {fileID: 465858, guid: 627e36a0129013a47a9ff4c741c3f6d6, type: 3}
      propertyPath: m_RootOrder
      value: 31
      objectReference: {fileID: 0}
    m_RemovedComponents: []
  m_SourcePrefab: {fileID: 100100000, guid: 627e36a0129013a47a9ff4c741c3f6d6, type: 3}
--- !u!1001 &1721756058
PrefabInstance:
  m_ObjectHideFlags: 0
  serializedVersion: 2
  m_Modification:
    m_TransformParent: {fileID: 0}
    m_Modifications:
    - target: {fileID: 444846, guid: 59d1ef214639e9d47a9c84b42033ae5f, type: 3}
      propertyPath: m_LocalPosition.x
      value: -1.28600001
      objectReference: {fileID: 0}
    - target: {fileID: 444846, guid: 59d1ef214639e9d47a9c84b42033ae5f, type: 3}
      propertyPath: m_LocalPosition.y
      value: 0
      objectReference: {fileID: 0}
    - target: {fileID: 444846, guid: 59d1ef214639e9d47a9c84b42033ae5f, type: 3}
      propertyPath: m_LocalPosition.z
      value: -.0610000007
      objectReference: {fileID: 0}
    - target: {fileID: 444846, guid: 59d1ef214639e9d47a9c84b42033ae5f, type: 3}
      propertyPath: m_LocalRotation.x
      value: -.496204019
      objectReference: {fileID: 0}
    - target: {fileID: 444846, guid: 59d1ef214639e9d47a9c84b42033ae5f, type: 3}
      propertyPath: m_LocalRotation.y
      value: .615493596
      objectReference: {fileID: 0}
    - target: {fileID: 444846, guid: 59d1ef214639e9d47a9c84b42033ae5f, type: 3}
      propertyPath: m_LocalRotation.z
      value: .604729891
      objectReference: {fileID: 0}
    - target: {fileID: 444846, guid: 59d1ef214639e9d47a9c84b42033ae5f, type: 3}
      propertyPath: m_LocalRotation.w
      value: .096182473
      objectReference: {fileID: 0}
    - target: {fileID: 444846, guid: 59d1ef214639e9d47a9c84b42033ae5f, type: 3}
      propertyPath: m_RootOrder
      value: 51
      objectReference: {fileID: 0}
    m_RemovedComponents: []
  m_SourcePrefab: {fileID: 100100000, guid: 59d1ef214639e9d47a9c84b42033ae5f, type: 3}
--- !u!1001 &1790124885
PrefabInstance:
  m_ObjectHideFlags: 0
  serializedVersion: 2
  m_Modification:
    m_TransformParent: {fileID: 0}
    m_Modifications:
    - target: {fileID: 491402, guid: ab24ef0900089004a8d270a23704c140, type: 3}
      propertyPath: m_LocalPosition.x
      value: -.0289999992
      objectReference: {fileID: 0}
    - target: {fileID: 491402, guid: ab24ef0900089004a8d270a23704c140, type: 3}
      propertyPath: m_LocalPosition.y
      value: 0
      objectReference: {fileID: 0}
    - target: {fileID: 491402, guid: ab24ef0900089004a8d270a23704c140, type: 3}
      propertyPath: m_LocalPosition.z
      value: -.680000007
      objectReference: {fileID: 0}
    - target: {fileID: 491402, guid: ab24ef0900089004a8d270a23704c140, type: 3}
      propertyPath: m_LocalRotation.x
      value: -.863569915
      objectReference: {fileID: 0}
    - target: {fileID: 491402, guid: ab24ef0900089004a8d270a23704c140, type: 3}
      propertyPath: m_LocalRotation.y
      value: .0142383333
      objectReference: {fileID: 0}
    - target: {fileID: 491402, guid: ab24ef0900089004a8d270a23704c140, type: 3}
      propertyPath: m_LocalRotation.z
      value: -.489387393
      objectReference: {fileID: 0}
    - target: {fileID: 491402, guid: ab24ef0900089004a8d270a23704c140, type: 3}
      propertyPath: m_LocalRotation.w
      value: -.120600067
      objectReference: {fileID: 0}
    - target: {fileID: 491402, guid: ab24ef0900089004a8d270a23704c140, type: 3}
      propertyPath: m_RootOrder
      value: 38
      objectReference: {fileID: 0}
    m_RemovedComponents: []
  m_SourcePrefab: {fileID: 100100000, guid: ab24ef0900089004a8d270a23704c140, type: 3}
--- !u!1001 &1815542441
PrefabInstance:
  m_ObjectHideFlags: 0
  serializedVersion: 2
  m_Modification:
    m_TransformParent: {fileID: 0}
    m_Modifications:
    - target: {fileID: 472244, guid: 4429006b7cac93d40910746372ea5184, type: 3}
      propertyPath: m_LocalPosition.x
      value: .898999989
      objectReference: {fileID: 0}
    - target: {fileID: 472244, guid: 4429006b7cac93d40910746372ea5184, type: 3}
      propertyPath: m_LocalPosition.y
      value: 0
      objectReference: {fileID: 0}
    - target: {fileID: 472244, guid: 4429006b7cac93d40910746372ea5184, type: 3}
      propertyPath: m_LocalPosition.z
      value: -.0810000002
      objectReference: {fileID: 0}
    - target: {fileID: 472244, guid: 4429006b7cac93d40910746372ea5184, type: 3}
      propertyPath: m_LocalRotation.x
      value: -.57537818
      objectReference: {fileID: 0}
    - target: {fileID: 472244, guid: 4429006b7cac93d40910746372ea5184, type: 3}
      propertyPath: m_LocalRotation.y
      value: -.184493408
      objectReference: {fileID: 0}
    - target: {fileID: 472244, guid: 4429006b7cac93d40910746372ea5184, type: 3}
      propertyPath: m_LocalRotation.z
      value: .245802507
      objectReference: {fileID: 0}
    - target: {fileID: 472244, guid: 4429006b7cac93d40910746372ea5184, type: 3}
      propertyPath: m_LocalRotation.w
      value: .757946789
      objectReference: {fileID: 0}
    - target: {fileID: 472244, guid: 4429006b7cac93d40910746372ea5184, type: 3}
      propertyPath: m_RootOrder
      value: 35
      objectReference: {fileID: 0}
    m_RemovedComponents: []
  m_SourcePrefab: {fileID: 100100000, guid: 4429006b7cac93d40910746372ea5184, type: 3}
--- !u!1001 &1831852740
PrefabInstance:
  m_ObjectHideFlags: 0
  serializedVersion: 2
  m_Modification:
    m_TransformParent: {fileID: 0}
    m_Modifications:
    - target: {fileID: 456334, guid: 6af1ada55fbfe1c4f8e894084451d932, type: 3}
      propertyPath: m_LocalPosition.x
      value: .0710000023
      objectReference: {fileID: 0}
    - target: {fileID: 456334, guid: 6af1ada55fbfe1c4f8e894084451d932, type: 3}
      propertyPath: m_LocalPosition.y
      value: 0
      objectReference: {fileID: 0}
    - target: {fileID: 456334, guid: 6af1ada55fbfe1c4f8e894084451d932, type: 3}
      propertyPath: m_LocalPosition.z
      value: -.699999988
      objectReference: {fileID: 0}
    - target: {fileID: 456334, guid: 6af1ada55fbfe1c4f8e894084451d932, type: 3}
      propertyPath: m_LocalRotation.x
      value: 1.15202326e-07
      objectReference: {fileID: 0}
    - target: {fileID: 456334, guid: 6af1ada55fbfe1c4f8e894084451d932, type: 3}
      propertyPath: m_LocalRotation.y
      value: .707106829
      objectReference: {fileID: 0}
    - target: {fileID: 456334, guid: 6af1ada55fbfe1c4f8e894084451d932, type: 3}
      propertyPath: m_LocalRotation.z
      value: .707106829
      objectReference: {fileID: 0}
    - target: {fileID: 456334, guid: 6af1ada55fbfe1c4f8e894084451d932, type: 3}
      propertyPath: m_LocalRotation.w
      value: -1.15202326e-07
      objectReference: {fileID: 0}
    - target: {fileID: 456334, guid: 6af1ada55fbfe1c4f8e894084451d932, type: 3}
      propertyPath: m_RootOrder
      value: 13
      objectReference: {fileID: 0}
    m_RemovedComponents: []
  m_SourcePrefab: {fileID: 100100000, guid: 6af1ada55fbfe1c4f8e894084451d932, type: 3}
--- !u!1001 &1845561528
PrefabInstance:
  m_ObjectHideFlags: 0
  serializedVersion: 2
  m_Modification:
    m_TransformParent: {fileID: 0}
    m_Modifications:
    - target: {fileID: 422684, guid: db2bbe470decdb34388b5f22e94766fa, type: 3}
      propertyPath: m_LocalPosition.x
      value: -1.03600001
      objectReference: {fileID: 0}
    - target: {fileID: 422684, guid: db2bbe470decdb34388b5f22e94766fa, type: 3}
      propertyPath: m_LocalPosition.y
      value: 0
      objectReference: {fileID: 0}
    - target: {fileID: 422684, guid: db2bbe470decdb34388b5f22e94766fa, type: 3}
      propertyPath: m_LocalPosition.z
      value: -.0610000007
      objectReference: {fileID: 0}
    - target: {fileID: 422684, guid: db2bbe470decdb34388b5f22e94766fa, type: 3}
      propertyPath: m_LocalRotation.x
      value: .190072313
      objectReference: {fileID: 0}
    - target: {fileID: 422684, guid: db2bbe470decdb34388b5f22e94766fa, type: 3}
      propertyPath: m_LocalRotation.y
      value: -.789240599
      objectReference: {fileID: 0}
    - target: {fileID: 422684, guid: db2bbe470decdb34388b5f22e94766fa, type: 3}
      propertyPath: m_LocalRotation.z
      value: -.540576994
      objectReference: {fileID: 0}
    - target: {fileID: 422684, guid: db2bbe470decdb34388b5f22e94766fa, type: 3}
      propertyPath: m_LocalRotation.w
      value: -.220790461
      objectReference: {fileID: 0}
    - target: {fileID: 422684, guid: db2bbe470decdb34388b5f22e94766fa, type: 3}
      propertyPath: m_RootOrder
      value: 46
      objectReference: {fileID: 0}
    m_RemovedComponents: []
  m_SourcePrefab: {fileID: 100100000, guid: db2bbe470decdb34388b5f22e94766fa, type: 3}
--- !u!1001 &1909825078
PrefabInstance:
  m_ObjectHideFlags: 0
  serializedVersion: 2
  m_Modification:
    m_TransformParent: {fileID: 0}
    m_Modifications:
    - target: {fileID: 449524, guid: 5def597caa15aea42ac3983f8dac7ad9, type: 3}
      propertyPath: m_LocalPosition.x
      value: -.145999998
      objectReference: {fileID: 0}
    - target: {fileID: 449524, guid: 5def597caa15aea42ac3983f8dac7ad9, type: 3}
      propertyPath: m_LocalPosition.y
      value: 0
      objectReference: {fileID: 0}
    - target: {fileID: 449524, guid: 5def597caa15aea42ac3983f8dac7ad9, type: 3}
      propertyPath: m_LocalPosition.z
      value: .469000012
      objectReference: {fileID: 0}
    - target: {fileID: 449524, guid: 5def597caa15aea42ac3983f8dac7ad9, type: 3}
      propertyPath: m_LocalRotation.x
      value: 1.15202326e-07
      objectReference: {fileID: 0}
    - target: {fileID: 449524, guid: 5def597caa15aea42ac3983f8dac7ad9, type: 3}
      propertyPath: m_LocalRotation.y
      value: .707106829
      objectReference: {fileID: 0}
    - target: {fileID: 449524, guid: 5def597caa15aea42ac3983f8dac7ad9, type: 3}
      propertyPath: m_LocalRotation.z
      value: .707106829
      objectReference: {fileID: 0}
    - target: {fileID: 449524, guid: 5def597caa15aea42ac3983f8dac7ad9, type: 3}
      propertyPath: m_LocalRotation.w
      value: -1.15202326e-07
      objectReference: {fileID: 0}
    - target: {fileID: 449524, guid: 5def597caa15aea42ac3983f8dac7ad9, type: 3}
      propertyPath: m_RootOrder
      value: 4
      objectReference: {fileID: 0}
    m_RemovedComponents: []
  m_SourcePrefab: {fileID: 100100000, guid: 5def597caa15aea42ac3983f8dac7ad9, type: 3}
--- !u!1001 &1956647859
PrefabInstance:
  m_ObjectHideFlags: 0
  serializedVersion: 2
  m_Modification:
    m_TransformParent: {fileID: 0}
    m_Modifications:
    - target: {fileID: 499022, guid: 2e52ab7b27833a546a0f62de87d98a15, type: 3}
      propertyPath: m_LocalPosition.x
      value: .331
      objectReference: {fileID: 0}
    - target: {fileID: 499022, guid: 2e52ab7b27833a546a0f62de87d98a15, type: 3}
      propertyPath: m_LocalPosition.y
      value: 0
      objectReference: {fileID: 0}
    - target: {fileID: 499022, guid: 2e52ab7b27833a546a0f62de87d98a15, type: 3}
      propertyPath: m_LocalPosition.z
      value: -.699999988
      objectReference: {fileID: 0}
    - target: {fileID: 499022, guid: 2e52ab7b27833a546a0f62de87d98a15, type: 3}
      propertyPath: m_LocalRotation.x
      value: 1.15202326e-07
      objectReference: {fileID: 0}
    - target: {fileID: 499022, guid: 2e52ab7b27833a546a0f62de87d98a15, type: 3}
      propertyPath: m_LocalRotation.y
      value: .707106829
      objectReference: {fileID: 0}
    - target: {fileID: 499022, guid: 2e52ab7b27833a546a0f62de87d98a15, type: 3}
      propertyPath: m_LocalRotation.z
      value: .707106829
      objectReference: {fileID: 0}
    - target: {fileID: 499022, guid: 2e52ab7b27833a546a0f62de87d98a15, type: 3}
      propertyPath: m_LocalRotation.w
      value: -1.15202326e-07
      objectReference: {fileID: 0}
    - target: {fileID: 499022, guid: 2e52ab7b27833a546a0f62de87d98a15, type: 3}
      propertyPath: m_RootOrder
      value: 8
      objectReference: {fileID: 0}
    m_RemovedComponents: []
  m_SourcePrefab: {fileID: 100100000, guid: 2e52ab7b27833a546a0f62de87d98a15, type: 3}
--- !u!1001 &2076367714
PrefabInstance:
  m_ObjectHideFlags: 0
  serializedVersion: 2
  m_Modification:
    m_TransformParent: {fileID: 0}
    m_Modifications:
    - target: {fileID: 472420, guid: adc19f74ee7df5144a498cd1c2e2cfe7, type: 3}
      propertyPath: m_LocalPosition.x
      value: .381000012
      objectReference: {fileID: 0}
    - target: {fileID: 472420, guid: adc19f74ee7df5144a498cd1c2e2cfe7, type: 3}
      propertyPath: m_LocalPosition.y
      value: 0
      objectReference: {fileID: 0}
    - target: {fileID: 472420, guid: adc19f74ee7df5144a498cd1c2e2cfe7, type: 3}
      propertyPath: m_LocalPosition.z
      value: -.0810000002
      objectReference: {fileID: 0}
    - target: {fileID: 472420, guid: adc19f74ee7df5144a498cd1c2e2cfe7, type: 3}
      propertyPath: m_LocalRotation.x
      value: .190072313
      objectReference: {fileID: 0}
    - target: {fileID: 472420, guid: adc19f74ee7df5144a498cd1c2e2cfe7, type: 3}
      propertyPath: m_LocalRotation.y
      value: -.789240599
      objectReference: {fileID: 0}
    - target: {fileID: 472420, guid: adc19f74ee7df5144a498cd1c2e2cfe7, type: 3}
      propertyPath: m_LocalRotation.z
      value: -.540576994
      objectReference: {fileID: 0}
    - target: {fileID: 472420, guid: adc19f74ee7df5144a498cd1c2e2cfe7, type: 3}
      propertyPath: m_LocalRotation.w
      value: -.220790461
      objectReference: {fileID: 0}
    - target: {fileID: 472420, guid: adc19f74ee7df5144a498cd1c2e2cfe7, type: 3}
      propertyPath: m_RootOrder
      value: 45
      objectReference: {fileID: 0}
    m_RemovedComponents: []
  m_SourcePrefab: {fileID: 100100000, guid: adc19f74ee7df5144a498cd1c2e2cfe7, type: 3}
--- !u!1001 &2080802053
PrefabInstance:
  m_ObjectHideFlags: 0
  serializedVersion: 2
  m_Modification:
    m_TransformParent: {fileID: 0}
    m_Modifications:
    - target: {fileID: 438736, guid: e107e09caa1d609499f8d790e75a44f9, type: 3}
      propertyPath: m_LocalPosition.x
      value: .635999978
      objectReference: {fileID: 0}
    - target: {fileID: 438736, guid: e107e09caa1d609499f8d790e75a44f9, type: 3}
      propertyPath: m_LocalPosition.y
      value: 0
      objectReference: {fileID: 0}
    - target: {fileID: 438736, guid: e107e09caa1d609499f8d790e75a44f9, type: 3}
      propertyPath: m_LocalPosition.z
      value: -.0810000002
      objectReference: {fileID: 0}
    - target: {fileID: 438736, guid: e107e09caa1d609499f8d790e75a44f9, type: 3}
      propertyPath: m_LocalRotation.x
      value: -.863569915
      objectReference: {fileID: 0}
    - target: {fileID: 438736, guid: e107e09caa1d609499f8d790e75a44f9, type: 3}
      propertyPath: m_LocalRotation.y
      value: .0142383333
      objectReference: {fileID: 0}
    - target: {fileID: 438736, guid: e107e09caa1d609499f8d790e75a44f9, type: 3}
      propertyPath: m_LocalRotation.z
      value: -.489387393
      objectReference: {fileID: 0}
    - target: {fileID: 438736, guid: e107e09caa1d609499f8d790e75a44f9, type: 3}
      propertyPath: m_LocalRotation.w
      value: -.120600067
      objectReference: {fileID: 0}
    - target: {fileID: 438736, guid: e107e09caa1d609499f8d790e75a44f9, type: 3}
      propertyPath: m_RootOrder
      value: 40
      objectReference: {fileID: 0}
    m_RemovedComponents: []
  m_SourcePrefab: {fileID: 100100000, guid: e107e09caa1d609499f8d790e75a44f9, type: 3}
--- !u!1001 &2113312959
PrefabInstance:
  m_ObjectHideFlags: 0
  serializedVersion: 2
  m_Modification:
    m_TransformParent: {fileID: 0}
    m_Modifications:
    - target: {fileID: 461446, guid: e753cdb0f185de742825663e5775c193, type: 3}
      propertyPath: m_LocalPosition.x
      value: -1.03600001
      objectReference: {fileID: 0}
    - target: {fileID: 461446, guid: e753cdb0f185de742825663e5775c193, type: 3}
      propertyPath: m_LocalPosition.y
      value: 0
      objectReference: {fileID: 0}
    - target: {fileID: 461446, guid: e753cdb0f185de742825663e5775c193, type: 3}
      propertyPath: m_LocalPosition.z
      value: .488999993
      objectReference: {fileID: 0}
    - target: {fileID: 461446, guid: e753cdb0f185de742825663e5775c193, type: 3}
      propertyPath: m_LocalRotation.x
      value: .190072313
      objectReference: {fileID: 0}
    - target: {fileID: 461446, guid: e753cdb0f185de742825663e5775c193, type: 3}
      propertyPath: m_LocalRotation.y
      value: -.789240599
      objectReference: {fileID: 0}
    - target: {fileID: 461446, guid: e753cdb0f185de742825663e5775c193, type: 3}
      propertyPath: m_LocalRotation.z
      value: -.540576994
      objectReference: {fileID: 0}
    - target: {fileID: 461446, guid: e753cdb0f185de742825663e5775c193, type: 3}
      propertyPath: m_LocalRotation.w
      value: -.220790461
      objectReference: {fileID: 0}
    - target: {fileID: 461446, guid: e753cdb0f185de742825663e5775c193, type: 3}
      propertyPath: m_RootOrder
      value: 44
      objectReference: {fileID: 0}
    m_RemovedComponents: []
  m_SourcePrefab: {fileID: 100100000, guid: e753cdb0f185de742825663e5775c193, type: 3}
--- !u!1001 &2119225296
PrefabInstance:
  m_ObjectHideFlags: 0
  serializedVersion: 2
  m_Modification:
    m_TransformParent: {fileID: 0}
    m_Modifications:
    - target: {fileID: 412336, guid: 0a7a31bbceedae94ab188b208a3fe3cf, type: 3}
      propertyPath: m_LocalPosition.x
      value: -.495999992
      objectReference: {fileID: 0}
    - target: {fileID: 412336, guid: 0a7a31bbceedae94ab188b208a3fe3cf, type: 3}
      propertyPath: m_LocalPosition.y
      value: 0
      objectReference: {fileID: 0}
    - target: {fileID: 412336, guid: 0a7a31bbceedae94ab188b208a3fe3cf, type: 3}
      propertyPath: m_LocalPosition.z
      value: -.0610000007
      objectReference: {fileID: 0}
    - target: {fileID: 412336, guid: 0a7a31bbceedae94ab188b208a3fe3cf, type: 3}
      propertyPath: m_LocalRotation.x
      value: -.57537818
      objectReference: {fileID: 0}
    - target: {fileID: 412336, guid: 0a7a31bbceedae94ab188b208a3fe3cf, type: 3}
      propertyPath: m_LocalRotation.y
      value: -.184493408
      objectReference: {fileID: 0}
    - target: {fileID: 412336, guid: 0a7a31bbceedae94ab188b208a3fe3cf, type: 3}
      propertyPath: m_LocalRotation.z
      value: .245802507
      objectReference: {fileID: 0}
    - target: {fileID: 412336, guid: 0a7a31bbceedae94ab188b208a3fe3cf, type: 3}
      propertyPath: m_LocalRotation.w
      value: .757946789
      objectReference: {fileID: 0}
    - target: {fileID: 412336, guid: 0a7a31bbceedae94ab188b208a3fe3cf, type: 3}
      propertyPath: m_RootOrder
      value: 36
      objectReference: {fileID: 0}
    m_RemovedComponents: []
  m_SourcePrefab: {fileID: 100100000, guid: 0a7a31bbceedae94ab188b208a3fe3cf, type: 3}
--- !u!1001 &2123187797
PrefabInstance:
  m_ObjectHideFlags: 0
  serializedVersion: 2
  m_Modification:
    m_TransformParent: {fileID: 0}
    m_Modifications:
    - target: {fileID: 433384, guid: e6c72eddf31e5704a803b12dc1b20157, type: 3}
      propertyPath: m_LocalPosition.x
      value: -.246000007
      objectReference: {fileID: 0}
    - target: {fileID: 433384, guid: e6c72eddf31e5704a803b12dc1b20157, type: 3}
      propertyPath: m_LocalPosition.y
      value: 0
      objectReference: {fileID: 0}
    - target: {fileID: 433384, guid: e6c72eddf31e5704a803b12dc1b20157, type: 3}
      propertyPath: m_LocalPosition.z
      value: .488999993
      objectReference: {fileID: 0}
    - target: {fileID: 433384, guid: e6c72eddf31e5704a803b12dc1b20157, type: 3}
      propertyPath: m_LocalRotation.x
      value: .107415438
      objectReference: {fileID: 0}
    - target: {fileID: 433384, guid: e6c72eddf31e5704a803b12dc1b20157, type: 3}
      propertyPath: m_LocalRotation.y
      value: .0891208872
      objectReference: {fileID: 0}
    - target: {fileID: 433384, guid: e6c72eddf31e5704a803b12dc1b20157, type: 3}
      propertyPath: m_LocalRotation.z
      value: .111321598
      objectReference: {fileID: 0}
    - target: {fileID: 433384, guid: e6c72eddf31e5704a803b12dc1b20157, type: 3}
      propertyPath: m_LocalRotation.w
      value: .983934402
      objectReference: {fileID: 0}
    - target: {fileID: 433384, guid: e6c72eddf31e5704a803b12dc1b20157, type: 3}
      propertyPath: m_RootOrder
      value: 29
      objectReference: {fileID: 0}
    m_RemovedComponents: []
  m_SourcePrefab: {fileID: 100100000, guid: e6c72eddf31e5704a803b12dc1b20157, type: 3}
--- !u!1001 &2143634924
PrefabInstance:
  m_ObjectHideFlags: 0
  serializedVersion: 2
  m_Modification:
    m_TransformParent: {fileID: 0}
    m_Modifications:
    - target: {fileID: 428636, guid: e9035ef32e00e094fa30b792f7375a57, type: 3}
      propertyPath: m_LocalPosition.x
      value: .481000006
      objectReference: {fileID: 0}
    - target: {fileID: 428636, guid: e9035ef32e00e094fa30b792f7375a57, type: 3}
      propertyPath: m_LocalPosition.y
      value: 0
      objectReference: {fileID: 0}
    - target: {fileID: 428636, guid: e9035ef32e00e094fa30b792f7375a57, type: 3}
      propertyPath: m_LocalPosition.z
      value: .449000001
      objectReference: {fileID: 0}
    - target: {fileID: 428636, guid: e9035ef32e00e094fa30b792f7375a57, type: 3}
      propertyPath: m_LocalRotation.x
      value: 1.15202326e-07
      objectReference: {fileID: 0}
    - target: {fileID: 428636, guid: e9035ef32e00e094fa30b792f7375a57, type: 3}
      propertyPath: m_LocalRotation.y
      value: .707106829
      objectReference: {fileID: 0}
    - target: {fileID: 428636, guid: e9035ef32e00e094fa30b792f7375a57, type: 3}
      propertyPath: m_LocalRotation.z
      value: .707106829
      objectReference: {fileID: 0}
    - target: {fileID: 428636, guid: e9035ef32e00e094fa30b792f7375a57, type: 3}
      propertyPath: m_LocalRotation.w
      value: -1.15202326e-07
      objectReference: {fileID: 0}
    - target: {fileID: 428636, guid: e9035ef32e00e094fa30b792f7375a57, type: 3}
      propertyPath: m_RootOrder
      value: 17
      objectReference: {fileID: 0}
    m_RemovedComponents: []
  m_SourcePrefab: {fileID: 100100000, guid: e9035ef32e00e094fa30b792f7375a57, type: 3}
