%YAML 1.1
%TAG !u! tag:unity3d.com,2011:
--- !u!114 &11400000
MonoBehaviour:
  m_ObjectHideFlags: 0
  m_CorrespondingSourceObject: {fileID: 0}
  m_PrefabInstance: {fileID: 0}
  m_PrefabAsset: {fileID: 0}
  m_GameObject: {fileID: 0}
  m_Enabled: 1
  m_EditorHideFlags: 0
  m_Script: {fileID: -1893448595, guid: a040fb66244a7f54289914d98ea4ef7d, type: 3}
  m_Name: Enemy
  m_EditorClassIdentifier: 
  _data:
    _json: '{"graph":{"variables":{"collection":{"$content":[],"$version":"A"},"$version":"A"},"controlInputDefinitions":[],"controlOutputDefinitions":[],"valueInputDefinitions":[],"valueOutputDefinitions":[],"title":null,"summary":null,"pan":{"x":145.2886,"y":685.5056},"zoom":0.9,"elements":[{"coroutine":false,"defaultValues":{},"position":{"x":-221.0,"y":-244.0},"guid":"808f002c-4b30-438e-916c-f6d1f1b60c20","$version":"A","$type":"Bolt.Start"},{"type":"System.Boolean","value":{"$content":true,"$type":"System.Boolean"},"defaultValues":{},"position":{"x":933.0,"y":58.0},"guid":"c650f62b-c32b-4350-b64b-26e2154dd33c","$version":"A","$type":"Bolt.Literal","$id":"11"},{"defaultValues":{},"position":{"x":203.0,"y":-109.0},"guid":"986394d3-9dfd-4821-9279-3bf6c0ae1a3c","$version":"A","$type":"Bolt.GenericSubtract","$id":"13"},{"argumentCount":0,"coroutine":false,"defaultValues":{"target":null,"name":{"$content":"DuelDefeat","$type":"System.String"}},"position":{"x":-409.0,"y":346.0},"guid":"04611653-782d-4418-9f36-6e830c55eff4","$version":"A","$type":"Bolt.CustomEvent","$id":"15"},{"chainable":false,"member":{"name":"SetParent","parameterTypes":["UnityEngine.Transform"],"targetType":"UnityEngine.Transform","targetTypeName":"UnityEngine.Transform","$version":"A"},"defaultValues":{"target":null,"%p":null},"position":{"x":-8.0,"y":352.0},"guid":"ec43a4ed-7233-42aa-af5b-3ae8fba4d93d","$version":"A","$type":"Bolt.InvokeMember","$id":"17"},{"chainable":false,"member":{"name":"useGravity","parameterTypes":null,"targetType":"UnityEngine.Rigidbody","targetTypeName":"UnityEngine.Rigidbody","$version":"A"},"defaultValues":{"target":null,"input":{"$content":true,"$type":"System.Boolean"}},"position":{"x":135.0,"y":626.0},"guid":"407b336c-689c-45ff-9be2-9719c09c5e68","$version":"A","$type":"Bolt.SetMember","$id":"20"},{"chainable":false,"member":{"name":"isKinematic","parameterTypes":null,"targetType":"UnityEngine.Rigidbody","targetTypeName":"UnityEngine.Rigidbody","$version":"A"},"defaultValues":{"target":null,"input":{"$content":false,"$type":"System.Boolean"}},"position":{"x":136.0,"y":489.0},"guid":"f4bf4214-0073-4118-b340-70dc0a29557e","$version":"A","$type":"Bolt.SetMember","$id":"23"},{"specifyFallback":false,"kind":"Object","defaultValues":{"name":{"$content":"Health","$type":"System.String"},"object":null},"position":{"x":25.0,"y":-182.0},"guid":"d9955202-64d4-4e8c-97dd-ba5bdb744472","$version":"A","$type":"Bolt.GetVariable","$id":"26"},{"defaultValues":{"seconds":{"$content":1.1,"$type":"System.Single"},"unscaledTime":{"$content":false,"$type":"System.Boolean"}},"position":{"x":1610.0,"y":-354.0},"guid":"79264cfb-0c38-43dc-93f1-5e2ef125d76a","$version":"A","$type":"Bolt.WaitForSecondsUnit","$id":"28"},{"chainable":false,"member":{"name":"Instantiate","parameterTypes":["UnityEngine.Object","UnityEngine.Vector3","UnityEngine.Quaternion"],"targetType":"UnityEngine.Object","targetTypeName":"UnityEngine.Object","$version":"A"},"defaultValues":{"%original":{"$content":0,"$type":"UnityEngine.Object"},"%position":{"x":0.0,"y":0.0,"z":0.0,"$type":"UnityEngine.Vector3"}},"position":{"x":1299.0,"y":-354.0},"guid":"f29593c3-6dec-4662-b1fe-51a589149a6f","$version":"A","$type":"Bolt.InvokeMember","$id":"30"},{"specifyFallback":false,"kind":"Object","defaultValues":{"name":{"$content":"Crown","$type":"System.String"},"object":null},"position":{"x":-198.0,"y":506.0},"guid":"a1766824-9ed5-4d49-9f16-351a02e93dfe","$version":"A","$type":"Bolt.GetVariable","$id":"33"},{"member":{"name":"position","parameterTypes":null,"targetType":"UnityEngine.Transform","targetTypeName":"UnityEngine.Transform","$version":"A"},"defaultValues":{"target":null},"position":{"x":1091.0,"y":-406.0},"guid":"4a39ea15-c41a-4356-889e-913624cfc7eb","$version":"A","$type":"Bolt.GetMember","$id":"35"},{"defaultValues":{"seconds":{"$content":0.7,"$type":"System.Single"},"unscaledTime":{"$content":false,"$type":"System.Boolean"}},"position":{"x":928.0,"y":-313.0},"guid":"2e2117a4-e007-43d7-a1d1-7fbb8f39648f","$version":"A","$type":"Bolt.WaitForSecondsUnit","$id":"38"},{"chainable":false,"member":{"name":"enabled","parameterTypes":null,"targetType":"UnityEngine.Animator","targetTypeName":"UnityEngine.Animator","$version":"A"},"defaultValues":{"target":null,"input":{"$content":false,"$type":"System.Boolean"}},"position":{"x":-202.0,"y":351.0},"guid":"234aa546-3a4c-4eec-9a1b-a89964c8e98d","$version":"A","$type":"Bolt.SetMember","$id":"40"},{"specifyFallback":false,"kind":"Object","defaultValues":{"name":{"$content":"FireballRoot","$type":"System.String"},"object":null},"position":{"x":910.0,"y":-541.0},"guid":"98992449-c354-4038-b170-ff043bee489e","$version":"A","$type":"Bolt.GetVariable","$id":"43"},{"chainable":false,"member":{"name":"SetTrigger","parameterTypes":["System.String"],"targetType":"UnityEngine.Animator","targetTypeName":"UnityEngine.Animator","$version":"A"},"defaultValues":{"target":null,"%name":{"$content":"Cast","$type":"System.String"}},"position":{"x":739.0,"y":-313.0},"guid":"98362294-b911-4897-9eae-c14bf50bfe86","$version":"A","$type":"Bolt.InvokeMember","$id":"45"},{"argumentCount":1,"coroutine":true,"defaultValues":{"target":null,"name":{"$content":"Damage","$type":"System.String"}},"position":{"x":-238.0,"y":-55.0},"guid":"e4028c29-7911-4b1a-b133-62ca0d78887a","$version":"A","$type":"Bolt.CustomEvent","$id":"48"},{"specifyFallback":false,"kind":"Object","defaultValues":{"name":{"$content":"Explosion","$type":"System.String"},"object":null},"position":{"x":-9.0,"y":227.0},"guid":"548ab3b5-6dd7-4792-b02b-0ff455afecad","$version":"A","$type":"Bolt.GetVariable","$id":"50"},{"specifyFallback":false,"kind":"Object","defaultValues":{"name":{"$content":"DuelController","$type":"System.String"},"object":null},"position":{"x":464.0,"y":29.0},"guid":"5f34abe5-74be-457b-974b-12bb86423100","$version":"A","$type":"Bolt.GetVariable","$id":"52"},{"kind":"Object","defaultValues":{"name":{"$content":"FirstDamageReceived","$type":"System.String"},"object":null},"position":{"x":1086.0,"y":-62.0},"guid":"d9a1d01f-4a84-4173-9043-18f486f4b392","$version":"A","$type":"Bolt.SetVariable","$id":"54"},{"chainable":false,"member":{"name":"timeScale","parameterTypes":null,"targetType":"UnityEngine.Time","targetTypeName":"UnityEngine.Time","$version":"A"},"defaultValues":{"input":{"$content":0.2,"$type":"System.Single"}},"position":{"x":420.0,"y":301.0},"guid":"a90f12fa-3163-4ae5-80ce-75b83762eb13","$version":"A","$type":"Bolt.SetMember","$id":"56"},{"specifyFallback":false,"kind":"Object","defaultValues":{"name":{"$content":"FirstDamageReceived","$type":"System.String"},"object":null},"position":{"x":668.0,"y":121.0},"guid":"59e152f0-3148-497f-a72e-93f0e5ccfe54","$version":"A","$type":"Bolt.GetVariable","$id":"59"},{"type":"UnityEngine.Quaternion","defaultValues":{},"position":{"x":1102.0,"y":-312.0},"guid":"ba1d3785-8e5d-4af1-92d0-2d26dcf60b0d","$version":"A","$type":"Bolt.CreateStruct","$id":"61"},{"chainable":false,"member":{"name":"SetTrigger","parameterTypes":["System.String"],"targetType":"UnityEngine.Animator","targetTypeName":"UnityEngine.Animator","$version":"A"},"defaultValues":{"target":null,"%name":{"$content":"Hit","$type":"System.String"}},"position":{"x":26.0,"y":-48.0},"guid":"60c6fcdd-6dfb-4609-bac7-1ec11a8931b3","$version":"A","$type":"Bolt.InvokeMember","$id":"63"},{"defaultValues":{},"position":{"x":920.0,"y":-59.0},"guid":"50abd5ad-9874-435c-a08b-351ec7e9f67a","$version":"A","$type":"Bolt.Branch","$id":"66"},{"argumentCount":0,"defaultValues":{"name":{"$content":"StartDuel","$type":"System.String"},"target":null},"position":{"x":685.0,"y":-79.0},"guid":"2faf1828-b4da-4e99-83d1-a355fe40d08e","$version":"A","$type":"Bolt.TriggerCustomEvent","$id":"68"},{"kind":"Object","defaultValues":{"name":{"$content":"Health","$type":"System.String"},"object":null},"position":{"x":269.0,"y":27.0},"guid":"94cc6408-689a-4741-ba0d-dfb8099aded9","$version":"A","$type":"Bolt.SetVariable","$id":"70"},{"numeric":true,"defaultValues":{"b":{"$content":0.0,"$type":"System.Single"}},"position":{"x":350.0,"y":-109.0},"guid":"6cecdd86-3d0f-40d2-8a4b-02a97c6ab7da","$version":"A","$type":"Bolt.LessOrEqual","$id":"72"},{"defaultValues":{},"position":{"x":529.0,"y":-130.0},"guid":"d60e995f-6d73-4c42-8797-04052bb70b71","$version":"A","$type":"Bolt.Branch","$id":"74"},{"chainable":false,"member":{"name":"SetValue","parameterTypes":["System.Single"],"targetType":"Doozy.Engine.Progress.Progressor","targetTypeName":"Doozy.Engine.Progress.Progressor","$version":"A"},"defaultValues":{"target":null,"%value":{"$content":0.0,"$type":"System.Single"}},"position":{"x":365.0,"y":-304.0},"guid":"e1c58dd4-cb4a-436c-a3e3-579e0e89cbf4","$version":"A","$type":"Bolt.InvokeMember","$id":"76"},{"specifyFallback":false,"kind":"Object","defaultValues":{"name":{"$content":"Healthbar","$type":"System.String"},"object":null},"position":{"x":58.0,"y":-340.0},"guid":"9d860af6-e680-4457-baf7-4d1807d973d6","$version":"A","$type":"Bolt.GetVariable","$id":"79"},{"chainable":false,"member":{"name":"SetActive","parameterTypes":["System.Boolean"],"targetType":"UnityEngine.GameObject","targetTypeName":"UnityEngine.GameObject","$version":"A"},"defaultValues":{"target":null,"%value":{"$content":true,"$type":"System.Boolean"}},"position":{"x":214.0,"y":302.0},"guid":"0bf2cb40-09c9-4930-8a96-636c87921511","$version":"A","$type":"Bolt.InvokeMember","$id":"81"},{"defaultValues":{"seconds":{"$content":1.0,"$type":"System.Single"},"unscaledTime":{"$content":false,"$type":"System.Boolean"}},"position":{"x":539.0,"y":-298.0},"guid":"29b9012b-b972-4e13-b880-6a490ec735dc","$version":"A","$type":"Bolt.WaitForSecondsUnit","$id":"84"},{"chainable":false,"member":{"name":"interpolation","parameterTypes":null,"targetType":"UnityEngine.Rigidbody","targetTypeName":"UnityEngine.Rigidbody","$version":"A"},"defaultValues":{"target":null,"input":{"$content":"Interpolate","$type":"UnityEngine.RigidbodyInterpolation"}},"position":{"x":126.0,"y":764.0},"guid":"b935a3f6-5c36-45d4-af29-e56b4490c946","$version":"A","$type":"Bolt.SetMember","$id":"86"},{"sourceUnit":{"$ref":"17"},"sourceKey":"exit","destinationUnit":{"$ref":"23"},"destinationKey":"assign","guid":"0e58ad15-a969-4b60-8d3b-ee725b5efd83","$type":"Bolt.ControlConnection"},{"sourceUnit":{"$ref":"40"},"sourceKey":"assigned","destinationUnit":{"$ref":"17"},"destinationKey":"enter","guid":"fad16c81-4292-44c3-8c49-7b8333170342","$type":"Bolt.ControlConnection"},{"sourceUnit":{"$ref":"23"},"sourceKey":"assigned","destinationUnit":{"$ref":"20"},"destinationKey":"assign","guid":"812509cf-f27a-4e32-8d48-7c79593acbd1","$type":"Bolt.ControlConnection"},{"sourceUnit":{"$ref":"30"},"sourceKey":"exit","destinationUnit":{"$ref":"28"},"destinationKey":"enter","guid":"509eb936-0b4b-42ac-b09b-171081673ffa","$type":"Bolt.ControlConnection"},{"sourceUnit":{"$ref":"70"},"sourceKey":"assigned","destinationUnit":{"$ref":"76"},"destinationKey":"enter","guid":"c8c3b086-eebb-42b9-ba63-ab64878a1c91","$type":"Bolt.ControlConnection"},{"sourceUnit":{"$ref":"81"},"sourceKey":"exit","destinationUnit":{"$ref":"56"},"destinationKey":"assign","guid":"dae55fb2-5cde-4bf0-9034-47787f6b29cd","$type":"Bolt.ControlConnection"},{"sourceUnit":{"$ref":"63"},"sourceKey":"exit","destinationUnit":{"$ref":"70"},"destinationKey":"assign","guid":"bd572189-5cbd-4214-8297-3ded22732e8e","$type":"Bolt.ControlConnection"},{"sourceUnit":{"$ref":"38"},"sourceKey":"exit","destinationUnit":{"$ref":"61"},"destinationKey":"enter","guid":"e040fc5b-938c-4266-82a0-2ecfa7cb00d0","$type":"Bolt.ControlConnection"},{"sourceUnit":{"$ref":"84"},"sourceKey":"exit","destinationUnit":{"$ref":"45"},"destinationKey":"enter","guid":"3cf5f45b-d3f5-4ac0-8e2c-4ca3b222acff","$type":"Bolt.ControlConnection"},{"sourceUnit":{"$ref":"61"},"sourceKey":"exit","destinationUnit":{"$ref":"30"},"destinationKey":"enter","guid":"50c97503-bb8c-4b24-a708-f19ca8297158","$type":"Bolt.ControlConnection"},{"sourceUnit":{"$ref":"68"},"sourceKey":"exit","destinationUnit":{"$ref":"66"},"destinationKey":"enter","guid":"54cacb5f-9b69-4d17-bf80-c5a3d064e523","$type":"Bolt.ControlConnection"},{"sourceUnit":{"$ref":"74"},"sourceKey":"ifFalse","destinationUnit":{"$ref":"84"},"destinationKey":"enter","guid":"6f2a67bb-25ae-46bd-9dfa-3a575f08ee32","$type":"Bolt.ControlConnection"},{"sourceUnit":{"$ref":"48"},"sourceKey":"trigger","destinationUnit":{"$ref":"63"},"destinationKey":"enter","guid":"bac2f8cf-f341-42ee-b1d9-1d649c7616d9","$type":"Bolt.ControlConnection"},{"sourceUnit":{"$ref":"74"},"sourceKey":"ifTrue","destinationUnit":{"$ref":"68"},"destinationKey":"enter","guid":"90065ee4-c55d-4ee4-9143-2132acb7e1f3","$type":"Bolt.ControlConnection"},{"sourceUnit":{"$ref":"15"},"sourceKey":"trigger","destinationUnit":{"$ref":"40"},"destinationKey":"assign","guid":"26d5c9e2-962b-4510-bf74-4c0400f05200","$type":"Bolt.ControlConnection"},{"sourceUnit":{"$ref":"66"},"sourceKey":"ifTrue","destinationUnit":{"$ref":"54"},"destinationKey":"assign","guid":"ce4090f0-bfd7-4b18-b638-d644bb359240","$type":"Bolt.ControlConnection"},{"sourceUnit":{"$ref":"45"},"sourceKey":"exit","destinationUnit":{"$ref":"38"},"destinationKey":"enter","guid":"2121ae4c-4a50-43aa-84b2-8b48ef56e56d","$type":"Bolt.ControlConnection"},{"sourceUnit":{"$ref":"76"},"sourceKey":"exit","destinationUnit":{"$ref":"74"},"destinationKey":"enter","guid":"da2e7bf0-7784-4a52-8ceb-d9b859203f65","$type":"Bolt.ControlConnection"},{"sourceUnit":{"$ref":"20"},"sourceKey":"assigned","destinationUnit":{"$ref":"86"},"destinationKey":"assign","guid":"56c62482-7d45-4e5c-91f9-7b0581fc54a0","$type":"Bolt.ControlConnection"},{"sourceUnit":{"$ref":"86"},"sourceKey":"assigned","destinationUnit":{"$ref":"81"},"destinationKey":"enter","guid":"5b57f0f6-8312-4206-9da5-feb39938fd5a","$type":"Bolt.ControlConnection"},{"sourceUnit":{"$ref":"72"},"sourceKey":"comparison","destinationUnit":{"$ref":"74"},"destinationKey":"condition","guid":"b3f97fe6-d65d-4b47-a227-57fbf897fc6b","$type":"Bolt.ValueConnection"},{"sourceUnit":{"$ref":"70"},"sourceKey":"output","destinationUnit":{"$ref":"72"},"destinationKey":"a","guid":"149af05c-cd7d-455c-9945-b6a22f251c6b","$type":"Bolt.ValueConnection"},{"sourceUnit":{"$ref":"52"},"sourceKey":"value","destinationUnit":{"$ref":"68"},"destinationKey":"target","guid":"2ca291ea-952c-4634-94de-01d3658a5d5b","$type":"Bolt.ValueConnection"},{"sourceUnit":{"$ref":"13"},"sourceKey":"difference","destinationUnit":{"$ref":"70"},"destinationKey":"input","guid":"43fdf176-0691-47c3-8728-79d5065f5712","$type":"Bolt.ValueConnection"},{"sourceUnit":{"$ref":"11"},"sourceKey":"output","destinationUnit":{"$ref":"54"},"destinationKey":"input","guid":"97f43250-3479-4efd-b176-f0279159f012","$type":"Bolt.ValueConnection"},{"sourceUnit":{"$ref":"26"},"sourceKey":"value","destinationUnit":{"$ref":"13"},"destinationKey":"minuend","guid":"0733b193-53e5-4498-84b7-542fb7e7b3b8","$type":"Bolt.ValueConnection"},{"sourceUnit":{"$ref":"35"},"sourceKey":"value","destinationUnit":{"$ref":"30"},"destinationKey":"%position","guid":"d8308ca8-4da9-4d4e-96e3-22fc83bece30","$type":"Bolt.ValueConnection"},{"sourceUnit":{"$ref":"33"},"sourceKey":"value","destinationUnit":{"$ref":"17"},"destinationKey":"target","guid":"a9df74f5-674d-445f-9b7d-e0e16f35f090","$type":"Bolt.ValueConnection"},{"sourceUnit":{"$ref":"50"},"sourceKey":"value","destinationUnit":{"$ref":"81"},"destinationKey":"target","guid":"0d1d46fb-92d4-4ef9-812a-5681123c3640","$type":"Bolt.ValueConnection"},{"sourceUnit":{"$ref":"43"},"sourceKey":"value","destinationUnit":{"$ref":"35"},"destinationKey":"target","guid":"2eaf517e-0506-42db-bd62-fa269f91711e","$type":"Bolt.ValueConnection"},{"sourceUnit":{"$ref":"79"},"sourceKey":"value","destinationUnit":{"$ref":"76"},"destinationKey":"target","guid":"5f5bb28a-a615-4515-90b5-1c22c0df6ac0","$type":"Bolt.ValueConnection"},{"sourceUnit":{"$ref":"59"},"sourceKey":"value","destinationUnit":{"$ref":"66"},"destinationKey":"condition","guid":"e9b4d96f-0d49-4c13-8bde-f15cb5e33009","$type":"Bolt.ValueConnection"},{"sourceUnit":{"$ref":"61"},"sourceKey":"output","destinationUnit":{"$ref":"30"},"destinationKey":"%rotation","guid":"91ee33f8-6d2d-461d-882d-68a9855d0616","$type":"Bolt.ValueConnection"},{"sourceUnit":{"$ref":"70"},"sourceKey":"output","destinationUnit":{"$ref":"76"},"destinationKey":"%value","guid":"ccd6b241-8c9a-4042-ba45-670b13719a00","$type":"Bolt.ValueConnection"},{"sourceUnit":{"$ref":"48"},"sourceKey":"argument_0","destinationUnit":{"$ref":"13"},"destinationKey":"subtrahend","guid":"fdb17f12-e556-4f8b-a384-818434ea2c98","$type":"Bolt.ValueConnection"},{"sourceUnit":{"$ref":"33"},"sourceKey":"value","destinationUnit":{"$ref":"23"},"destinationKey":"target","guid":"6fbd1b53-0b17-46f6-9172-81cb461a533a","$type":"Bolt.ValueConnection"},{"sourceUnit":{"$ref":"33"},"sourceKey":"value","destinationUnit":{"$ref":"20"},"destinationKey":"target","guid":"09afb707-45fa-4c4e-95bb-ad60ad7d9f72","$type":"Bolt.ValueConnection"},{"sourceUnit":{"$ref":"33"},"sourceKey":"value","destinationUnit":{"$ref":"86"},"destinationKey":"target","guid":"31b5507d-bdf0-4d6b-8644-b2bc17a1cbac","$type":"Bolt.ValueConnection"}],"$version":"A"}}'
    _objectReferences:
    - {fileID: 6617073861437779517, guid: 7a32e87b9b5c34526b1393b29cdc4150, type: 3}
