%YAML 1.1
%TAG !u! tag:unity3d.com,2011:
--- !u!114 &11400000
MonoBehaviour:
  m_ObjectHideFlags: 0
  m_CorrespondingSourceObject: {fileID: 0}
  m_PrefabInstance: {fileID: 0}
  m_PrefabAsset: {fileID: 0}
  m_GameObject: {fileID: 0}
  m_Enabled: 1
  m_EditorHideFlags: 0
  m_Script: {fileID: -1893448595, guid: a040fb66244a7f54289914d98ea4ef7d, type: 3}
  m_Name: Fireball
  m_EditorClassIdentifier: 
  _data:
    _json: '{"graph":{"variables":{"collection":{"$content":[],"$version":"A"},"$version":"A"},"controlInputDefinitions":[],"controlOutputDefinitions":[],"valueInputDefinitions":[],"valueOutputDefinitions":[],"title":null,"summary":null,"pan":{"x":737.1666,"y":-3.205231},"zoom":0.6499998,"elements":[{"coroutine":true,"defaultValues":{},"position":{"x":-328.0,"y":-141.0},"guid":"45f30d97-a4c6-4a84-b2dc-41527818ea88","$version":"A","$type":"Bolt.Start","$id":"9"},{"chainable":false,"member":{"name":"SetActive","parameterTypes":["System.Boolean"],"targetType":"UnityEngine.GameObject","targetTypeName":"UnityEngine.GameObject","$version":"A"},"defaultValues":{"target":null,"%value":{"$content":false,"$type":"System.Boolean"}},"position":{"x":321.0,"y":425.0},"guid":"37a21ff1-9286-4cd1-8d6e-2fe1a83cc923","$version":"A","$type":"Bolt.InvokeMember","$id":"11"},{"chainable":false,"member":{"name":"DOMove","parameterTypes":["UnityEngine.Vector3","System.Single","System.Boolean"],"targetType":"UnityEngine.Transform","targetTypeName":"UnityEngine.Transform","$version":"A"},"defaultValues":{"target":null,"%endValue":{"x":0.0,"y":0.0,"z":0.0,"$type":"UnityEngine.Vector3"},"%duration":{"$content":1.0,"$type":"System.Single"},"%snapping":{"$content":false,"$type":"System.Boolean"}},"position":{"x":747.0,"y":-99.0},"guid":"4a03b8b4-7340-4ea5-aa8f-55c1d8184653","$version":"A","$type":"Bolt.InvokeMember","$id":"14"},{"chainable":false,"member":{"name":"FindGameObjectWithTag","parameterTypes":["System.String"],"targetType":"UnityEngine.GameObject","targetTypeName":"UnityEngine.GameObject","$version":"A"},"defaultValues":{"%tag":{"$content":"Player","$type":"System.String"}},"position":{"x":-170.0,"y":-142.0},"guid":"977faeb4-d34d-4dce-8cee-5384a96219e9","$version":"A","$type":"Bolt.InvokeMember","$id":"17"},{"chainable":false,"member":{"name":"SetAs","parameterTypes":["DG.Tweening.TweenParams"],"targetType":"DG.Tweening.Tween","targetTypeName":"DG.Tweening.Tween","$version":"A"},"defaultValues":{},"position":{"x":937.0,"y":-192.0},"guid":"cc06019a-80f2-457e-be30-2d8661974ad8","$version":"A","$type":"Bolt.InvokeMember","$id":"20"},{"member":{"name":"tag","parameterTypes":null,"targetType":"UnityEngine.Collider","targetTypeName":"UnityEngine.Collider","$version":"A"},"defaultValues":{"target":null},"position":{"x":-188.0,"y":487.0},"guid":"e2d7f1df-5eeb-4b9e-b93b-bd6f2bd53d30","$version":"A","$type":"Bolt.GetMember","$id":"23"},{"coroutine":true,"defaultValues":{"target":null},"position":{"x":-447.0,"y":419.0},"guid":"f7041b34-cc62-4c40-adf0-d0c1a1c3bc64","$version":"A","$type":"Bolt.OnTriggerEnter","$id":"26"},{"member":{"name":"position","parameterTypes":null,"targetType":"UnityEngine.Transform","targetTypeName":"UnityEngine.Transform","$version":"A"},"defaultValues":{"target":null},"position":{"x":300.0,"y":134.0},"guid":"0a9e9f43-b3e9-46b6-808f-366d43b9a434","$version":"A","$type":"Bolt.GetMember","$id":"28"},{"specifyFallback":false,"kind":"Object","defaultValues":{"name":{"$content":"ExplosionFX","$type":"System.String"},"object":null},"position":{"x":321.0,"y":586.0},"guid":"164dd209-8797-4780-b614-729ecf852345","$version":"A","$type":"Bolt.GetVariable","$id":"31"},{"type":"System.Single","value":{"$content":1.7,"$type":"System.Single"},"defaultValues":{},"position":{"x":344.0,"y":-91.0},"guid":"7d7fb951-560c-45b6-93f8-2ac2951a726f","$version":"A","$type":"Bolt.Literal","$id":"33"},{"coroutine":false,"defaultValues":{},"position":{"x":-335.0,"y":69.0},"guid":"8d183aa0-84c0-45e1-a56d-fbde11d48c39","$version":"A","$type":"Bolt.Update"},{"specifyFallback":false,"kind":"Object","defaultValues":{"name":{"$content":"FireballFX","$type":"System.String"},"object":null},"position":{"x":116.0,"y":588.0},"guid":"2f3cd707-3b91-4136-8c66-db48b9052174","$version":"A","$type":"Bolt.GetVariable","$id":"37"},{"argumentCount":1,"defaultValues":{"name":{"$content":"Damage","$type":"System.String"},"target":null},"position":{"x":695.0,"y":451.0},"guid":"89e0e3e0-2589-4d85-9bbe-0aa347181db1","$version":"A","$type":"Bolt.TriggerCustomEvent","$id":"39"},{"chainable":false,"member":{"name":"Destroy","parameterTypes":["UnityEngine.Object"],"targetType":"UnityEngine.GameObject","targetTypeName":"UnityEngine.GameObject","$version":"A"},"defaultValues":{"%obj":null},"position":{"x":1113.0,"y":472.0},"guid":"e3fe80d1-2f17-42a2-880d-1ca67239ac9f","$version":"A","$type":"Bolt.InvokeMember","$id":"41"},{"kind":"Object","defaultValues":{"name":{"$content":"Enemy","$type":"System.String"},"object":null},"position":{"x":87.0,"y":-148.0},"guid":"c4a89e9f-416b-4e34-a984-cd65d465c68b","$version":"A","$type":"Bolt.SetVariable","$id":"44"},{"type":"System.Single","value":{"$content":0.0,"$type":"System.Single"},"defaultValues":{},"position":{"x":344.0,"y":-2.0},"guid":"984151dd-bddb-45c4-a7b6-7613a808f153","$version":"A","$type":"Bolt.Literal","$id":"46"},{"member":{"name":"z","parameterTypes":null,"targetType":"UnityEngine.Vector3","targetTypeName":"UnityEngine.Vector3","$version":"A"},"defaultValues":{"target":{"x":0.0,"y":0.0,"z":0.0,"$type":"UnityEngine.Vector3"}},"position":{"x":463.0,"y":194.0},"guid":"940cb11a-537e-4ba7-8cff-6ea6f444ea77","$version":"A","$type":"Bolt.GetMember","$id":"48"},{"defaultValues":{},"position":{"x":957.0,"y":621.0},"guid":"e7b3480d-9fd9-4672-b2d3-c6d0b2a9325b","$version":"A","$type":"Bolt.Self","$id":"51"},{"member":{"name":"gameObject","parameterTypes":null,"targetType":"UnityEngine.Collider","targetTypeName":"UnityEngine.Collider","$version":"A"},"defaultValues":{"target":null},"position":{"x":111.0,"y":730.0},"guid":"b51146f7-69b4-4c71-9f42-5ce2e1673cb3","$version":"A","$type":"Bolt.GetMember","$id":"53"},{"type":"System.String","value":{"$content":"Player","$type":"System.String"},"defaultValues":{},"position":{"x":-181.0,"y":589.0},"guid":"fc9e91b5-5dfb-4ab0-ba5e-a95260a9f7ed","$version":"A","$type":"Bolt.Literal","$id":"56"},{"numeric":false,"defaultValues":{},"position":{"x":-35.0,"y":488.0},"guid":"65aa5bbb-7ee0-4045-923c-53e1e67204a2","$version":"A","$type":"Bolt.Equal","$id":"58"},{"chainable":false,"member":{"name":".ctor","parameterTypes":[],"targetType":"DG.Tweening.TweenParams","targetTypeName":"DG.Tweening.TweenParams","$version":"A"},"defaultValues":{},"position":{"x":304.0,"y":-209.0},"guid":"edfe1444-202c-43b4-a18c-f0dd77eabeb7","$version":"A","$type":"Bolt.InvokeMember","$id":"60"},{"chainable":false,"member":{"name":"SetActive","parameterTypes":["System.Boolean"],"targetType":"UnityEngine.GameObject","targetTypeName":"UnityEngine.GameObject","$version":"A"},"defaultValues":{"target":null,"%value":{"$content":true,"$type":"System.Boolean"}},"position":{"x":519.0,"y":426.0},"guid":"a382aaad-3f42-4a75-a5c9-14a648a3020c","$version":"A","$type":"Bolt.InvokeMember","$id":"63"},{"defaultValues":{},"position":{"x":132.0,"y":421.0},"guid":"0f3e0c96-2d9c-40a5-8d1c-2d15c9c041bd","$version":"A","$type":"Bolt.Branch","$id":"66"},{"type":"System.Int32","value":{"$content":3,"$type":"System.Int32"},"defaultValues":{},"position":{"x":563.0,"y":585.0},"guid":"e1e5abe2-6864-4dad-942d-d1baba1188f2","$version":"A","$type":"Bolt.Literal","$id":"68"},{"type":"System.Single","value":{"$content":4.0,"$type":"System.Single"},"defaultValues":{},"position":{"x":634.0,"y":146.0},"guid":"50a4a61d-dee6-4808-92f5-96cb4424f3a8","$version":"A","$type":"Bolt.Literal","$id":"70"},{"chainable":false,"member":{"name":".ctor","parameterTypes":["System.Single","System.Single","System.Single"],"targetType":"UnityEngine.Vector3","targetTypeName":"UnityEngine.Vector3","$version":"A"},"defaultValues":{"%x":{"$content":0.0,"$type":"System.Single"},"%y":{"$content":1.0,"$type":"System.Single"},"%z":{"$content":0.0,"$type":"System.Single"}},"position":{"x":612.0,"y":-36.0},"guid":"f708f756-bcbc-4922-9772-93b362b71672","$version":"A","$type":"Bolt.InvokeMember","$id":"72"},{"chainable":false,"member":{"name":"SetEase","parameterTypes":["DG.Tweening.Ease","System.Nullable`1[[System.Single,
      mscorlib, Version=4.0.0.0, Culture=neutral, PublicKeyToken=b77a5c561934e089]]","System.Nullable`1[[System.Single,
      mscorlib, Version=4.0.0.0, Culture=neutral, PublicKeyToken=b77a5c561934e089]]"],"targetType":"DG.Tweening.TweenParams","targetTypeName":"DG.Tweening.TweenParams","$version":"A"},"defaultValues":{"%ease":{"$content":"InOutSine","$type":"DG.Tweening.Ease"}},"position":{"x":493.0,"y":-208.0},"guid":"4a3e3506-8460-4b5e-bf79-19bdaac3727a","$version":"A","$type":"Bolt.InvokeMember","$id":"75"},{"defaultValues":{"seconds":{"$content":3.0,"$type":"System.Single"},"unscaledTime":{"$content":false,"$type":"System.Boolean"}},"position":{"x":904.0,"y":470.0},"guid":"0ebc6fa5-2ebf-42ee-adc9-abfaffcfd290","$version":"A","$type":"Bolt.WaitForSecondsUnit","$id":"78"},{"member":{"name":"x","parameterTypes":null,"targetType":"UnityEngine.Vector3","targetTypeName":"UnityEngine.Vector3","$version":"A"},"defaultValues":{"target":{"x":0.0,"y":0.0,"z":0.0,"$type":"UnityEngine.Vector3"}},"position":{"x":462.0,"y":81.0},"guid":"9d5dec9a-2c13-4ae8-afbb-ed0169049393","$version":"A","$type":"Bolt.GetMember","$id":"80"},{"sourceUnit":{"$ref":"78"},"sourceKey":"exit","destinationUnit":{"$ref":"41"},"destinationKey":"enter","guid":"18f7d2f9-f862-41fc-90ac-208899187e11","$type":"Bolt.ControlConnection"},{"sourceUnit":{"$ref":"39"},"sourceKey":"exit","destinationUnit":{"$ref":"78"},"destinationKey":"enter","guid":"ae570162-8d1a-4819-93be-44bd2642d193","$type":"Bolt.ControlConnection"},{"sourceUnit":{"$ref":"11"},"sourceKey":"exit","destinationUnit":{"$ref":"63"},"destinationKey":"enter","guid":"5e0af560-5d5b-4561-a535-b421c997511b","$type":"Bolt.ControlConnection"},{"sourceUnit":{"$ref":"75"},"sourceKey":"exit","destinationUnit":{"$ref":"72"},"destinationKey":"enter","guid":"3b50bbe7-0e10-4bf1-95f1-891a5ff2cfa3","$type":"Bolt.ControlConnection"},{"sourceUnit":{"$ref":"14"},"sourceKey":"exit","destinationUnit":{"$ref":"20"},"destinationKey":"enter","guid":"0b4495b8-1072-40a9-90b3-b90a4c351966","$type":"Bolt.ControlConnection"},{"sourceUnit":{"$ref":"9"},"sourceKey":"trigger","destinationUnit":{"$ref":"17"},"destinationKey":"enter","guid":"6685292a-0d77-4bf6-81f3-f843a980c6d7","$type":"Bolt.ControlConnection"},{"sourceUnit":{"$ref":"44"},"sourceKey":"assigned","destinationUnit":{"$ref":"60"},"destinationKey":"enter","guid":"b92675dd-905d-49a9-a9fe-821b305a0505","$type":"Bolt.ControlConnection"},{"sourceUnit":{"$ref":"17"},"sourceKey":"exit","destinationUnit":{"$ref":"44"},"destinationKey":"assign","guid":"a34fddec-3d16-4a00-9d68-780ed4ed8538","$type":"Bolt.ControlConnection"},{"sourceUnit":{"$ref":"60"},"sourceKey":"exit","destinationUnit":{"$ref":"75"},"destinationKey":"enter","guid":"afef77f7-0188-457a-8968-bc000aa5b38f","$type":"Bolt.ControlConnection"},{"sourceUnit":{"$ref":"72"},"sourceKey":"exit","destinationUnit":{"$ref":"14"},"destinationKey":"enter","guid":"92416600-e851-43d5-a6d5-6304d6a5d49e","$type":"Bolt.ControlConnection"},{"sourceUnit":{"$ref":"63"},"sourceKey":"exit","destinationUnit":{"$ref":"39"},"destinationKey":"enter","guid":"51926ed6-5c21-4931-bf4f-c318275f8490","$type":"Bolt.ControlConnection"},{"sourceUnit":{"$ref":"66"},"sourceKey":"ifTrue","destinationUnit":{"$ref":"11"},"destinationKey":"enter","guid":"00a4103e-f231-49e3-bb72-a75845eede58","$type":"Bolt.ControlConnection"},{"sourceUnit":{"$ref":"26"},"sourceKey":"trigger","destinationUnit":{"$ref":"66"},"destinationKey":"enter","guid":"ad9a219d-4c71-413d-9150-f5656bc81361","$type":"Bolt.ControlConnection"},{"sourceUnit":{"$ref":"23"},"sourceKey":"value","destinationUnit":{"$ref":"58"},"destinationKey":"a","guid":"4641756d-ffee-4196-833c-5d25c34d6e90","$type":"Bolt.ValueConnection"},{"sourceUnit":{"$ref":"58"},"sourceKey":"equal","destinationUnit":{"$ref":"66"},"destinationKey":"condition","guid":"49b84a48-0422-43f2-a914-91a477728ab9","$type":"Bolt.ValueConnection"},{"sourceUnit":{"$ref":"33"},"sourceKey":"output","destinationUnit":{"$ref":"75"},"destinationKey":"%overshootOrAmplitude","guid":"2766eca0-e3e5-4810-8ad9-e4d31b81c2c1","$type":"Bolt.ValueConnection"},{"sourceUnit":{"$ref":"72"},"sourceKey":"result","destinationUnit":{"$ref":"14"},"destinationKey":"%endValue","guid":"eb94e629-41bc-47d2-8980-626171fa1dbb","$type":"Bolt.ValueConnection"},{"sourceUnit":{"$ref":"31"},"sourceKey":"value","destinationUnit":{"$ref":"63"},"destinationKey":"target","guid":"b2c0595e-6aa2-496e-8cdb-2c130f957d68","$type":"Bolt.ValueConnection"},{"sourceUnit":{"$ref":"80"},"sourceKey":"value","destinationUnit":{"$ref":"72"},"destinationKey":"%x","guid":"f8c2b592-b6d4-4739-868a-58e62a4516ef","$type":"Bolt.ValueConnection"},{"sourceUnit":{"$ref":"56"},"sourceKey":"output","destinationUnit":{"$ref":"58"},"destinationKey":"b","guid":"1f159072-cff6-43ae-8242-56df6a9a3d47","$type":"Bolt.ValueConnection"},{"sourceUnit":{"$ref":"14"},"sourceKey":"result","destinationUnit":{"$ref":"20"},"destinationKey":"target","guid":"bcb1bc39-6440-4a88-8235-1affbfd4d707","$type":"Bolt.ValueConnection"},{"sourceUnit":{"$ref":"46"},"sourceKey":"output","destinationUnit":{"$ref":"75"},"destinationKey":"%period","guid":"e356fe75-ed9a-4ee0-8344-a49e64e5c505","$type":"Bolt.ValueConnection"},{"sourceUnit":{"$ref":"48"},"sourceKey":"value","destinationUnit":{"$ref":"72"},"destinationKey":"%z","guid":"17615766-e715-428b-bd64-d1de01d461c1","$type":"Bolt.ValueConnection"},{"sourceUnit":{"$ref":"37"},"sourceKey":"value","destinationUnit":{"$ref":"11"},"destinationKey":"target","guid":"b1adf80d-cb94-4a90-8725-5e111ce7e223","$type":"Bolt.ValueConnection"},{"sourceUnit":{"$ref":"44"},"sourceKey":"output","destinationUnit":{"$ref":"28"},"destinationKey":"target","guid":"fde1be1c-b00e-4b7f-9940-8df9c07ec6f0","$type":"Bolt.ValueConnection"},{"sourceUnit":{"$ref":"26"},"sourceKey":"collider","destinationUnit":{"$ref":"23"},"destinationKey":"target","guid":"47700837-9dd4-4495-ac5d-896401ea961a","$type":"Bolt.ValueConnection"},{"sourceUnit":{"$ref":"70"},"sourceKey":"output","destinationUnit":{"$ref":"14"},"destinationKey":"%duration","guid":"b77fd71d-12a7-43df-8ec8-7bafe9c951cf","$type":"Bolt.ValueConnection"},{"sourceUnit":{"$ref":"68"},"sourceKey":"output","destinationUnit":{"$ref":"39"},"destinationKey":"argument_0","guid":"7bd6ad00-6786-4231-a599-4ffddeef08a7","$type":"Bolt.ValueConnection"},{"sourceUnit":{"$ref":"53"},"sourceKey":"value","destinationUnit":{"$ref":"39"},"destinationKey":"target","guid":"ae3fb489-7f8b-4f1b-a99a-ae8b5b875dd1","$type":"Bolt.ValueConnection"},{"sourceUnit":{"$ref":"51"},"sourceKey":"self","destinationUnit":{"$ref":"41"},"destinationKey":"%obj","guid":"4a658f58-9a9e-479b-98b5-5b60c7086022","$type":"Bolt.ValueConnection"},{"sourceUnit":{"$ref":"75"},"sourceKey":"result","destinationUnit":{"$ref":"20"},"destinationKey":"%tweenParams","guid":"1e983d48-3ace-4e15-a74d-572cf4e8bedd","$type":"Bolt.ValueConnection"},{"sourceUnit":{"$ref":"60"},"sourceKey":"result","destinationUnit":{"$ref":"75"},"destinationKey":"target","guid":"f3dba160-972b-42ea-b28b-eff589a5d19b","$type":"Bolt.ValueConnection"},{"sourceUnit":{"$ref":"28"},"sourceKey":"value","destinationUnit":{"$ref":"48"},"destinationKey":"target","guid":"2696ad01-0dde-4f91-a674-4c59b7358041","$type":"Bolt.ValueConnection"},{"sourceUnit":{"$ref":"28"},"sourceKey":"value","destinationUnit":{"$ref":"80"},"destinationKey":"target","guid":"569b341b-52ca-4eba-bf42-4aa00d605c21","$type":"Bolt.ValueConnection"},{"sourceUnit":{"$ref":"17"},"sourceKey":"result","destinationUnit":{"$ref":"44"},"destinationKey":"input","guid":"1214de46-107b-418c-835e-0fe932a26b96","$type":"Bolt.ValueConnection"},{"sourceUnit":{"$ref":"26"},"sourceKey":"collider","destinationUnit":{"$ref":"53"},"destinationKey":"target","guid":"c936b5fe-0e84-4eba-97f2-12499a826f66","$type":"Bolt.ValueConnection"}],"$version":"A"}}'
    _objectReferences: []
